<svg id="HU_logo" data-name="HU logo" xmlns="http://www.w3.org/2000/svg" width="192.424" height="63.355" viewBox="0 0 192.424 63.355">
  <g id="Group_202" data-name="Group 202">
    <path id="Path_190" data-name="Path 190" d="M200.148,249.8c0-.066,0-.137,0-.2a29.368,29.368,0,0,0-58.727-.007v.154c-.009.128-.009.254-.009.386v.429a1.344,1.344,0,0,1,.009.188,29.38,29.38,0,0,0,20.3,27.405,3.86,3.86,0,0,0,.8-1.452l.007-.017,0-.046c.061-.291.135-.6.209-.962l.053-.184c.366-1.516.806-2.932.813-2.955.11-.382.2-.677.282-.875a5.174,5.174,0,0,1,.571-.953,1.507,1.507,0,0,1,1.237-.593,2.031,2.031,0,0,1,.653.107l.4.167-.019-.432a3,3,0,0,0-.047-.435,19.7,19.7,0,0,1-4.911-1.737v-.093a19.675,19.675,0,0,1,3.029-36.293l-.027-.081a19.777,19.777,0,0,1,15.008,1.232v.09a19.683,19.683,0,0,1-3.02,36.3l.024.083a19.629,19.629,0,0,1-9.112.68c-1.091,2.267-1.288,6.026-1.288,8.4,0,.306-.02.71-.051,1.15a29.712,29.712,0,0,0,4.446.335,29.365,29.365,0,0,0,29.358-28.833c0-.053,0-.1,0-.154,0-.125.01-.252.01-.386v-.085C200.158,250.023,200.148,249.914,200.148,249.8Z" transform="translate(-141.408 -220.764)" fill="#bd96c5"/>
    <path id="Path_191" data-name="Path 191" d="M170.55,221.315a28.589,28.589,0,0,0-8.562,55.866,4.617,4.617,0,0,0,.295-.705l.007-.017,0-.046c.061-.291.135-.6.209-.962l.053-.184c.366-1.516.806-2.932.813-2.955.11-.382.2-.677.282-.875a5.172,5.172,0,0,1,.571-.953,1.507,1.507,0,0,1,1.237-.593,2.032,2.032,0,0,1,.653.107l.4.167-.019-.432a2.572,2.572,0,0,0-.407-1.365l1.883.164-.009.08c-1.553,2.036-1.811,6.557-1.811,9.266,0,.08,0,.178-.006.269a28.912,28.912,0,0,0,4.4.339,28.586,28.586,0,0,0,0-57.173Z" transform="translate(-141.173 -220.53)" fill="#461a55"/>
    <g id="Group_165" data-name="Group 165" transform="translate(9.243 9.239)">
      <path id="Path_192" data-name="Path 192" d="M147.9,247.386a20.13,20.13,0,1,1,20.134,20.131A20.135,20.135,0,0,1,147.9,247.386" transform="translate(-147.896 -227.249)" fill="#bd96c5" fill-rule="evenodd"/>
    </g>
    <path id="Path_193" data-name="Path 193" d="M160.1,263.854c0-2.708.258-7.23,1.811-9.266l.009-.08-1.883-.164a2.572,2.572,0,0,1,.407,1.365l.019.432-.4-.167a2.031,2.031,0,0,0-.652-.107,1.507,1.507,0,0,0-1.237.593,5.178,5.178,0,0,0-.571.953c-.08.2-.172.493-.282.875-.007.023-.447,1.439-.813,2.955l-.053.184c-.074.363-.148.671-.209.962l0,.046Z" transform="translate(-135.114 -206.505)" fill="#fff" fill-rule="evenodd"/>
    <g id="Group_166" data-name="Group 166" transform="translate(10.071 10.071)">
      <path id="Path_194" data-name="Path 194" d="M148.477,247.138a19.3,19.3,0,1,1,19.306,19.3,19.308,19.308,0,0,1-19.306-19.3" transform="translate(-148.477 -227.833)" fill="#fff" fill-rule="evenodd"/>
    </g>
    <g id="Group_167" data-name="Group 167" transform="translate(11.562 11.457)">
      <path id="Path_195" data-name="Path 195" d="M149.524,246.554a17.751,17.751,0,1,1,17.751,17.754,17.752,17.752,0,0,1-17.751-17.754" transform="translate(-149.524 -228.806)" fill="#cfb381" fill-rule="evenodd"/>
    </g>
    <g id="Group_190" data-name="Group 190" transform="translate(14.984 12.793)">
      <g id="Group_168" data-name="Group 168">
        <path id="Path_196" data-name="Path 196" d="M157.23,238.629a20.838,20.838,0,0,0-4.252,3.831l1.509.1s.493-.343.628-.011a.569.569,0,0,1-.205.593l-1.084.016.546.366-.774.976.019,1.546c0,.291.722.7.722.7a5.847,5.847,0,0,0,1.472.4c.456-.011,2.05-.248,3.05-.258s.936,1.071.936,1.071a2.689,2.689,0,0,0-1.311-.523,10.57,10.57,0,0,0-3.047.087,2.536,2.536,0,0,1-1.426-.229,1.679,1.679,0,0,0,.077,2.43c.682.7,2.267.59,3.221.077a2.586,2.586,0,0,1,2.093.007,7.16,7.16,0,0,1-3.165,1.13,2.822,2.822,0,0,1-3.279-1.241,3.4,3.4,0,0,1,.8-2.653,8.08,8.08,0,0,0-.682-.742c-.168-.121-.227-1.083-.311-1.335s-.557-1.161-.557-1.161a1.365,1.365,0,0,1,.048-1.717,31.133,31.133,0,0,1,4.466-3.748,2.058,2.058,0,0,1,1.01-2.362l2.118-1.366q1.684-5.015,6.5-4.868-5.169,1.16-5.451,5.1-4.336,2.09-3.666,3.781" transform="translate(-151.926 -229.744)" fill="#461a55" fill-rule="evenodd"/>
      </g>
      <g id="Group_169" data-name="Group 169" transform="translate(6.625 8.684)">
        <path id="Path_197" data-name="Path 197" d="M159.482,236.229l-2.1-.389a4.94,4.94,0,0,1-.806,1.814,3.086,3.086,0,0,1,2.667-.875Z" transform="translate(-156.577 -235.84)" fill="#461a55" fill-rule="evenodd"/>
      </g>
      <g id="Group_170" data-name="Group 170" transform="translate(7.745 7.468)">
        <path id="Path_198" data-name="Path 198" d="M161.312,246.923a14.713,14.713,0,0,0-3.745,12.653,22.836,22.836,0,0,1,2.943-10.091c.323-.63,4.5-6.422,4.5-6.422l-2.638,2.673q.209-1.9,2.561-5.308c-.392-3-1.308-4.817-2.759-5.442,1.153,1.241,1.832,3.167,2.014,5.8a9.375,9.375,0,0,0-2.881,6.142" transform="translate(-157.363 -234.986)" fill="#461a55" fill-rule="evenodd"/>
      </g>
      <g id="Group_171" data-name="Group 171" transform="translate(10.422 0.257)">
        <path id="Path_199" data-name="Path 199" d="M159.242,234l1.711-.862q1.784-3.143,7.026-3.114-6.674-.729-8.737,3.976" transform="translate(-159.242 -229.924)" fill="#461a55" fill-rule="evenodd"/>
      </g>
      <g id="Group_172" data-name="Group 172" transform="translate(16.49 1.187)">
        <path id="Path_200" data-name="Path 200" d="M163.5,230.662a13.99,13.99,0,0,1,10.217,6.082q-3.146-6.892-10.217-6.082" transform="translate(-163.501 -230.577)" fill="#461a55" fill-rule="evenodd"/>
      </g>
      <g id="Group_173" data-name="Group 173" transform="translate(16.089 2.704)">
        <path id="Path_201" data-name="Path 201" d="M164.763,236.845q1-4.727-1.543-5.2c1.261.96,1.489,2.4.7,4.3Z" transform="translate(-163.22 -231.642)" fill="#461a55" fill-rule="evenodd"/>
      </g>
      <g id="Group_174" data-name="Group 174" transform="translate(13.632 3.124)">
        <path id="Path_202" data-name="Path 202" d="M162.712,235.46l-.056-1.292-1.161.557c.021-1.94.546-2.873,1.587-2.782q1.453.754.755,3.046c-.309.567-.681.722-1.125.472" transform="translate(-161.495 -231.937)" fill="#461a55" fill-rule="evenodd"/>
      </g>
      <g id="Group_175" data-name="Group 175" transform="translate(20.148 3.818)">
        <path id="Path_203" data-name="Path 203" d="M166.069,232.424a7.763,7.763,0,0,1,.654,1.53s1.664-.2,3.567,2.238a5.608,5.608,0,0,0-4.221-3.768" transform="translate(-166.069 -232.424)" fill="#461a55" fill-rule="evenodd"/>
      </g>
      <g id="Group_176" data-name="Group 176" transform="translate(21.278 5.995)">
        <path id="Path_204" data-name="Path 204" d="M167.46,235.654l-.6-1.7a4.463,4.463,0,0,1,2.812,2.557c-1.113-1.165-2.074-.966-2.214-.855" transform="translate(-166.862 -233.952)" fill="#461a55" fill-rule="evenodd"/>
      </g>
      <g id="Group_177" data-name="Group 177" transform="translate(18.417 4.44)">
        <path id="Path_205" data-name="Path 205" d="M164.854,232.861a10.218,10.218,0,0,1,1.956,6c.093,3.794.707,5.21,1.643,6.905-.879-2.8-.4-5.2-.369-7.187s-1.557-4.394-3.23-5.723" transform="translate(-164.854 -232.861)" fill="#461a55" fill-rule="evenodd"/>
      </g>
      <g id="Group_178" data-name="Group 178" transform="translate(22.698 8.908)">
        <path id="Path_206" data-name="Path 206" d="M167.859,236a10.052,10.052,0,0,1,.218,4.847,8.315,8.315,0,0,0,.858,5.862c.732,1.415,1.892,2.3,2.4.65a5.173,5.173,0,0,0-.59-4.217,3.275,3.275,0,0,1-1.017,4.134c-.568-.935-.457-1.984-.43-3.827s.456-4.865-1.442-7.449" transform="translate(-167.859 -235.997)" fill="#461a55" fill-rule="evenodd"/>
      </g>
      <g id="Group_179" data-name="Group 179" transform="translate(17.984 16.561)">
        <path id="Path_207" data-name="Path 207" d="M166.72,251.21c.02-.335.037-.751.02-1.251-2.762-3.151-1.7-8.59-1.7-8.59a11.718,11.718,0,0,0,1.078,9.118,7.854,7.854,0,0,0,.6.724" transform="translate(-164.55 -241.369)" fill="#461a55" fill-rule="evenodd"/>
      </g>
      <g id="Group_180" data-name="Group 180" transform="translate(21.252 9.595)">
        <path id="Path_208" data-name="Path 208" d="M171.941,240.449c-2.319-2.386-2.04-3.97-2.04-3.97-.6,3.114.876,4.247,1.9,5.576,1.013,1.333,2.259,2.779,2.032,4.871-1.207,6.453-4.687,7.344-6.851,6.147a4.759,4.759,0,0,1-.142,1.151c1.449.925,3.51,1.124,5.948-1.833,3.681-4.475,1.466-9.568-.85-11.941" transform="translate(-166.844 -236.479)" fill="#461a55" fill-rule="evenodd"/>
      </g>
      <g id="Group_181" data-name="Group 181" transform="translate(20.996 19.05)">
        <path id="Path_209" data-name="Path 209" d="M168.019,243.116s-.5.43-.224,2.1.339,3.818-1.131,3.512c0,0,.6,1.529,1.389.9s.821-1.928.42-3.081a8.717,8.717,0,0,1-.454-3.43" transform="translate(-166.664 -243.116)" fill="#461a55" fill-rule="evenodd"/>
      </g>
      <g id="Group_182" data-name="Group 182" transform="translate(19.181 22.2)">
        <path id="Path_210" data-name="Path 210" d="M166.984,245.327s-.446.573-.413,2.8-.125,2.963-1.181,2.281c0,0,.221,1.831,1.016,1.456s1.2-2.133.994-3.248-.725-2.127-.416-3.288" transform="translate(-165.39 -245.327)" fill="#461a55" fill-rule="evenodd"/>
      </g>
      <g id="Group_183" data-name="Group 183" transform="translate(15.152 25.013)">
        <path id="Path_211" data-name="Path 211" d="M166.113,247.3a13.758,13.758,0,0,0-.321,2.587c-.021,1.342-.675,2.775-1.808,3.054s-1.474-.7-1.308-1.369c0,0-.718,2.529,1.436,2.715,1.644.131,2.564-1.966,2.318-3.779a20,20,0,0,1-.318-3.208" transform="translate(-162.562 -247.302)" fill="#461a55" fill-rule="evenodd"/>
      </g>
      <g id="Group_184" data-name="Group 184" transform="translate(10.335 17.924)">
        <path id="Path_212" data-name="Path 212" d="M165.209,242.326s1.026,7.777-2.5,11.046c-1.661,1.54-3.931,1.123-3.191-3.109,0,0-1.459,5.472,1.735,5.181s5.288-6.838,3.96-13.119" transform="translate(-159.181 -242.326)" fill="#461a55" fill-rule="evenodd"/>
      </g>
      <g id="Group_185" data-name="Group 185" transform="translate(8.971 25.946)">
        <path id="Path_213" data-name="Path 213" d="M159.9,247.957s-1.855,3.154-.4,5.827a1.546,1.546,0,0,0,2.08.433,1.723,1.723,0,0,1-3.053-.352c-.912-1.876.437-4.978,1.375-5.908" transform="translate(-158.223 -247.957)" fill="#461a55" fill-rule="evenodd"/>
      </g>
      <g id="Group_186" data-name="Group 186" transform="translate(17.595 9.74)">
        <path id="Path_214" data-name="Path 214" d="M165.592,236.664s2.834,5.988.137,10.985a11.811,11.811,0,0,0-.36-9.327s.01-.175-.248.14c-.2.264-.539.822-.806.308s1.014-2.628,1.278-2.106" transform="translate(-164.277 -236.581)" fill="#461a55" fill-rule="evenodd"/>
      </g>
      <g id="Group_187" data-name="Group 187" transform="translate(25.696 7.736)">
        <path id="Path_215" data-name="Path 215" d="M170.065,235.174s2.6,2.137,3.034,8.684c0,0-.275-4.277-2.784-6.875a5.669,5.669,0,0,0,.479,2.844c.2.187.343-.87.229-1.476.554,1.247.6,2.227.189,2.393s-1.6-1.936-1.148-5.57" transform="translate(-169.964 -235.174)" fill="#461a55" fill-rule="evenodd"/>
      </g>
      <g id="Group_188" data-name="Group 188" transform="translate(12.771 23.509)">
        <path id="Path_216" data-name="Path 216" d="M161.307,247.379a10.519,10.519,0,0,0,.955-1.133c.066,2.18-.021,2.74-1.37,4.529a5.15,5.15,0,0,0,.416-3.4" transform="translate(-160.891 -246.246)" fill="#461a55" fill-rule="evenodd"/>
      </g>
      <g id="Group_189" data-name="Group 189" transform="translate(9.899 19.998)">
        <path id="Path_217" data-name="Path 217" d="M161.914,244.321c.157-.322,1.554-.979,2.2-.1.251.426-1.955,3.879-5.243,5.294a12.631,12.631,0,0,0,3.678-3.862c.543-.96-.974-.675-.64-1.332" transform="translate(-158.875 -243.781)" fill="#461a55" fill-rule="evenodd"/>
      </g>
    </g>
    <g id="Group_191" data-name="Group 191" transform="translate(18.937 54.889)">
      <path id="Path_218" data-name="Path 218" d="M176.9,261.833c.433-.174.507.037-.142.285a23.192,23.192,0,0,1-12.968.6,61.075,61.075,0,0,1-9.092-2.547l.4-.879s21.285,2.754,21.8,2.54" transform="translate(-154.701 -259.293)" fill="#dbbd81" fill-rule="evenodd"/>
    </g>
    <g id="Group_192" data-name="Group 192" transform="translate(20.439 47.395)">
      <path id="Path_219" data-name="Path 219" d="M155.755,254.671l.275-.638c.425.205,4.533,2.218,6.737,2.97,4.762,1.64,9.108,2.691,12.246,2.691a24.792,24.792,0,0,0,4.47-.373,16.936,16.936,0,0,0,3.425-1,8.865,8.865,0,0,0,2.365-2.154c.272-.346.5-.557.51-.365.306,2.808-2.993,4.705-7.619,5.307-4.7.611-9.2-1.53-13.575-2.517a22.367,22.367,0,0,1-8.834-3.918" transform="translate(-155.755 -254.033)" fill="#bd96c5" fill-rule="evenodd"/>
    </g>
    <g id="Group_193" data-name="Group 193" transform="translate(20.439 47.665)">
      <path id="Path_220" data-name="Path 220" d="M155.755,254.745l.328-.523c.429.2,4.48,2.1,6.684,2.855,4.762,1.64,9.108,2.69,12.246,2.69a24.2,24.2,0,0,0,4.47-.378,16.1,16.1,0,0,0,4.667-1.583c.207-.071-.048.219-.147.306-1.335,1.2-4.525,2.049-6.019,2.237-4.707.6-9.024-.7-13.4-1.694a22.3,22.3,0,0,1-8.834-3.911" transform="translate(-155.755 -254.222)" fill="#dbbd81" fill-rule="evenodd"/>
    </g>
    <g id="Group_194" data-name="Group 194" transform="translate(19.02 48.319)">
      <path id="Path_221" data-name="Path 221" d="M181.663,259.387l.332.5s.135.155-1.06,1.134a19.388,19.388,0,0,1-4.271,2.821c-4.151,1.5-8.573,1.209-12.9.229a50,50,0,0,1-9.009-2.836l2.012-6.556a63.09,63.09,0,0,0,6.237,2.812c4.808,1.65,7.727,2.584,12.416,2.626a20.061,20.061,0,0,0,6.24-.732" transform="translate(-154.759 -254.681)" fill="#bd96c5" fill-rule="evenodd"/>
    </g>
    <g id="Group_195" data-name="Group 195" transform="translate(19.788 49.551)">
      <path id="Path_222" data-name="Path 222" d="M162.511,258.019c4.875,1.675,7.884,2.637,12.675,2.668,4.327.041,5.81-.623,5.81-.623a19.517,19.517,0,0,1-5.063,3.335c-3.1,1.153-8.167,1.07-12.393.061a63.032,63.032,0,0,1-8.241-2.509l1.687-5.406a48.552,48.552,0,0,0,5.526,2.473" transform="translate(-155.298 -255.546)" fill="#dbbd81" fill-rule="evenodd"/>
    </g>
    <g id="Group_196" data-name="Group 196" transform="translate(24.944 46.962)">
      <path id="Path_223" data-name="Path 223" d="M169.424,253.729s-2.775,1.5-2.7,10.344a11.927,11.927,0,0,0,.922,5.208l-4.389-2.805-4.341,2.821s.472-3.681.472-5.181.061-7.915,2.218-9.534a.282.282,0,0,1,.244-.08,17.357,17.357,0,0,0,7.573-.774" transform="translate(-158.917 -253.729)" fill="#dbbd81" fill-rule="evenodd"/>
    </g>
    <g id="Group_197" data-name="Group 197" transform="translate(24.456 46.566)">
      <path id="Path_224" data-name="Path 224" d="M158.575,270.24l.066-.862c.011-.1.46-3.68.46-5.144,0-3.007.311-8.261,2.368-9.851a.718.718,0,0,1,.492-.189h.076l.138.017c.422.036,1.143.1,2.047.1a14.861,14.861,0,0,0,5.2-.859l.349.771c-.019.013-2.792,1.365-2.751,9.742.033,4.111.516,3.915.7,4.708l.554,1.53L163.4,267.1Zm4.831-3.789,3.829,2.274a9.371,9.371,0,0,1-.794-4.527c-.038-5.394.966-8.146,1.821-9.5a17.312,17.312,0,0,1-4.042.457h0c-.94,0-1.68-.067-2.123-.1l-.1-.013c-1.281.974-2.029,4.409-2.231,9.179-.073,1.739-.3,2.3-.509,4.848Z" transform="translate(-158.575 -253.451)" fill="#bd96c5"/>
    </g>
    <g id="Group_198" data-name="Group 198" transform="translate(26.315 47.891)">
      <path id="Path_225" data-name="Path 225" d="M162.823,264.866l-2.943,1.95.017-.2a14.773,14.773,0,0,0,.212-2.775c0-4.69.741-7.993,2.084-9.316l.13.135c-1.308,1.279-2.029,4.544-2.029,9.18a13.043,13.043,0,0,1-.194,2.6l2.722-1.792,2.855,1.886c-.486-1.332-.705-1.234-.691-2.73.058-4,.506-7.26,1.541-9.422l.167.083c-1.026,2.134-1.546,5.361-1.51,9.34a11.339,11.339,0,0,0,.913,3.5Z" transform="translate(-159.88 -254.381)" fill="#bd96c5"/>
    </g>
    <g id="Group_199" data-name="Group 199" transform="translate(16.435 47.066)">
      <path id="Path_226" data-name="Path 226" d="M157.347,262.575c.073-.322.144-.65.225-.973a.656.656,0,0,1,.047-.2c.372-1.544.818-2.963.818-2.963.1-.362.2-.687.291-.909a6.389,6.389,0,0,1,.605-1.019,1.983,1.983,0,0,1,2.22-.57c-.047-1.432-1.086-2.261-2.708-2.13s-2.184,1.96-2.207,2.824-1.023,1.355-1.569,1.751c-.564.387-1.235.45-1.593.849-.378.4.486,1.147,1.316.838l.654-.249a5.1,5.1,0,0,1-.765,2.155,1.645,1.645,0,0,1-1.735.443s-.15,2.356,2.04,2.289a2.644,2.644,0,0,0,2.361-2.117v-.023" transform="translate(-152.944 -253.801)" fill="#dbbd81" fill-rule="evenodd"/>
    </g>
    <g id="Group_200" data-name="Group 200" transform="translate(16.157 46.783)">
      <path id="Path_227" data-name="Path 227" d="M154.977,265.08h0a2.1,2.1,0,0,1-1.586-.617,2.875,2.875,0,0,1-.637-1.975l.021-.363.35.111a1.691,1.691,0,0,0,.489.073,1.1,1.1,0,0,0,.923-.416,4.159,4.159,0,0,0,.621-1.541l-.177.073a1.472,1.472,0,0,1-.509.1,1.36,1.36,0,0,1-1.227-.7.62.62,0,0,1,.094-.687,2.437,2.437,0,0,1,.925-.54,3.58,3.58,0,0,0,.728-.356c.083-.067.187-.125.3-.2.5-.335,1.121-.752,1.138-1.325.033-.946.682-2.943,2.469-3.094.117-.006.242-.014.353-.014a2.41,2.41,0,0,1,2.665,2.422l.019.432-.4-.167a2.032,2.032,0,0,0-.652-.107,1.507,1.507,0,0,0-1.237.593,5.175,5.175,0,0,0-.571.953c-.08.2-.172.493-.283.875-.006.023-.446,1.439-.812,2.955l-.053.184c-.074.363-.148.671-.209.962l0,.046-.007.017a2.886,2.886,0,0,1-2.626,2.314Zm-1.651-2.228a2.112,2.112,0,0,0,.48,1.225,1.521,1.521,0,0,0,1.171.437h.081a2.372,2.372,0,0,0,2.1-1.882v-.027c.063-.3.134-.61.218-.969a.984.984,0,0,1,.056-.245c.372-1.519.815-2.936.818-2.952.115-.4.212-.711.3-.927l.01-.018a5.961,5.961,0,0,1,.64-1.068,2.084,2.084,0,0,1,1.684-.806,2.389,2.389,0,0,1,.439.037,1.879,1.879,0,0,0-2.066-1.486c-.088,0-.2,0-.306.009-1.415.123-1.923,1.772-1.952,2.554-.017.862-.811,1.386-1.389,1.774-.111.066-.2.131-.289.191a3.633,3.633,0,0,1-.848.42,2.005,2.005,0,0,0-.707.4c-.007.007-.017.021,0,.076a.833.833,0,0,0,.712.365.907.907,0,0,0,.306-.056l1.083-.423-.054.457a5.488,5.488,0,0,1-.818,2.3,1.664,1.664,0,0,1-1.376.643A1.476,1.476,0,0,1,153.326,262.852Z" transform="translate(-152.749 -253.603)" fill="#bd96c5"/>
    </g>
    <g id="Group_201" data-name="Group 201" transform="translate(27.43 49.247)">
      <path id="Path_228" data-name="Path 228" d="M162.008,257.325l-.584-.209v-1.782h.087a7.826,7.826,0,0,0,1.167,1.111,1.5,1.5,0,0,0,.829.322.659.659,0,0,0,.472-.181.563.563,0,0,0,.182-.416.707.707,0,0,0-.125-.4.855.855,0,0,0-.386-.268v-.074a.989.989,0,0,1,.63.284.777.777,0,0,1,.221.576.853.853,0,0,1-.232.608.749.749,0,0,1-.564.249,1.074,1.074,0,0,1-.45-.108,2.99,2.99,0,0,1-.768-.533c-.4-.37-.638-.593-.728-.692v.789a1.691,1.691,0,0,0,.021.336.523.523,0,0,0,.068.174.455.455,0,0,0,.161.132Z" transform="translate(-160.338 -255.333)" fill="#461a55"/>
      <path id="Path_229" data-name="Path 229" d="M162.667,257.018a2.319,2.319,0,0,1,.886.161,1.293,1.293,0,0,1,.556.415.752.752,0,0,1,.147.415.807.807,0,0,1-.358.624,1.9,1.9,0,0,1-1.194.339,2.449,2.449,0,0,1-.888-.144,1.129,1.129,0,0,1-.526-.389.768.768,0,0,1-.172-.454.825.825,0,0,1,.507-.712A2.1,2.1,0,0,1,162.667,257.018Zm-.058.439a2.825,2.825,0,0,0-1.014.154c-.225.087-.336.208-.336.38a.365.365,0,0,0,.111.245.651.651,0,0,0,.362.2,4.312,4.312,0,0,0,1.077.1,2.924,2.924,0,0,0,.86-.105.788.788,0,0,0,.362-.209.333.333,0,0,0,.075-.218.354.354,0,0,0-.137-.272,1.153,1.153,0,0,0-.586-.218A4.984,4.984,0,0,0,162.608,257.457Z" transform="translate(-160.468 -254.618)" fill="#461a55"/>
      <path id="Path_230" data-name="Path 230" d="M163.757,258.836l.358.737v.071h-2.55a1.268,1.268,0,0,0-.312.021.159.159,0,0,0-.1.09.657.657,0,0,0-.033.271h-.084v-1.133h.084a.668.668,0,0,0,.033.275.207.207,0,0,0,.084.084,1.163,1.163,0,0,0,.328.023H163.2a2.464,2.464,0,0,0,.422-.02.171.171,0,0,0,.1-.056.2.2,0,0,0,.034-.1.508.508,0,0,0-.074-.225Z" transform="translate(-160.503 -253.846)" fill="#461a55"/>
      <path id="Path_231" data-name="Path 231" d="M161.78,262.058h-.321v-.406h-.8v-.366h.8v-1.276h.286l2,1.395v.248H161.78Zm0-.772h1.489l-1.489-1.059Z" transform="translate(-160.662 -253.348)" fill="#461a55"/>
    </g>
    <path id="Path_232" data-name="Path 232" d="M153.391,263.244a2.293,2.293,0,0,1-.291.133l-.353-.442c-.05-.051-.111-.111-.189-.184l-1,.493c-.342.2-.6.355-.775.447l-.1.048c-.111.048-.379.2-.809.435l-.1.07-.336.164-.332.2-.168.1a5.058,5.058,0,0,0-.511.321.617.617,0,0,0-.081.086.636.636,0,0,0,.02.078c.016.021.023.057.037.078a3.08,3.08,0,0,0,.141.352l.016.07a1.135,1.135,0,0,1,.061.175.644.644,0,0,1-.144.085.338.338,0,0,1-.14.048c-.033-.043-.081-.118-.135-.207s-.088-.161-.111-.192c-.138-.338-.256-.583-.336-.738-.046-.068-.074-.14-.117-.214a1.767,1.767,0,0,0-.1-.2c-.044-.087-.168-.289-.383-.607a.887.887,0,0,1-.113-.168,2.444,2.444,0,0,1-.127-.249.668.668,0,0,0,.114-.073c.05-.017.1-.044.175-.071l.49.635a.131.131,0,0,0,.157.019l.135-.087.068-.038.168-.088.135-.071.03-.013a.1.1,0,0,1,.067-.044l.494-.272a1.167,1.167,0,0,1,.105-.066l.123-.063a1.175,1.175,0,0,0,.135-.066c.04-.027.13-.081.268-.161-.026-.078-.054-.148-.071-.2l-.318-.586-.158-.279-.38-.707-.4-.671a1.577,1.577,0,0,0-.184-.265c-.091.044-.309.158-.657.346l-.178.085-.651.386-.245.189a.14.14,0,0,0-.026.087,2.891,2.891,0,0,0,.121.624,1.337,1.337,0,0,1,.036.161.942.942,0,0,1-.238.093.334.334,0,0,1-.061-.1l-.207-.373a5.612,5.612,0,0,0-.359-.756c-.029-.06-.056-.1-.074-.137l-.3-.5a.566.566,0,0,0-.078-.125,1.484,1.484,0,0,1-.189-.272c-.04-.076-.083-.161-.131-.274a2.394,2.394,0,0,1,.281-.137c.182.209.306.35.36.407a1.463,1.463,0,0,0,.222.167l.083-.02.08-.036.088-.058.057-.024a1.117,1.117,0,0,0,.128-.054l.1-.056c.11-.066.177-.105.191-.117l.493-.274.368-.212.5-.265c.121-.058.346-.194.691-.395l.553-.313.457-.252c.087-.054.189-.1.315-.167a.944.944,0,0,0-.046-.175,3.23,3.23,0,0,1-.144-.637l.272-.164c.056.1.093.164.1.182a4.186,4.186,0,0,1,.218.439,10.378,10.378,0,0,0,.536,1.043,8.218,8.218,0,0,0,.5.8.452.452,0,0,1,.051.147,1.188,1.188,0,0,1-.279.11l-.232-.261-.215-.279c-.028-.021-.057-.056-.1-.1a11.207,11.207,0,0,0-1.067.538l-.342.164a4.214,4.214,0,0,1-.473.308,2.867,2.867,0,0,0,.151.315l.99,1.818.014.043.007.024a.442.442,0,0,1,.038.061c.04.064.071.124.1.171l.056.11a.6.6,0,0,0,.122.15l.3-.144.05-.024a.92.92,0,0,1,.13-.084l1.205-.67c.064-.04.134-.081.2-.125l.007-.046-.231-.634c-.013-.034-.016-.057-.021-.071a.226.226,0,0,1-.006-.11c.05-.043.09-.068.108-.084l.15-.06c.053.1.1.172.135.239s.057.115.085.16a.512.512,0,0,1,.029.073l.289.561c.061.135.154.322.282.553l.051.087c.07.105.105.165.117.181C153.047,262.657,153.194,262.9,153.391,263.244Zm-3.76-7.157a3.857,3.857,0,0,0-.15-.605l-.064-.172c-.06-.7-.107-1.134-.128-1.316a.511.511,0,0,0-.107.01c-.043.01-.111.019-.215.038v.321a.83.83,0,0,1-.053.406.2.2,0,0,1-.157.087.977.977,0,0,1-.326-.037c-.576-.107-.94-.177-1.1-.222l-.259-1.675.811-.483.4-.245a.354.354,0,0,1,.118-.04.149.149,0,0,1,.1.027.814.814,0,0,1,.124.241l.187.472a1.683,1.683,0,0,0,.3-.033l-.043-.214-.154-.741c-.024-.1-.057-.271-.091-.5-.031-.211-.058-.442-.083-.714s-.044-.5-.077-.718a.665.665,0,0,0-.1.01c-.043.009-.118.028-.214.056a1.728,1.728,0,0,0-.033.406.579.579,0,0,1-.051.274.755.755,0,0,1-.2.17,5.084,5.084,0,0,1-.529.323c-.261.151-.452.262-.576.34-.218.138-.5.306-.833.5s-.69.409-1.043.64l-1.688,1.05-.075.051.024.2c.019.088.033.182.053.281l2.9.607,2.465.514a.806.806,0,0,1,.282.145,1.268,1.268,0,0,1,.175.392c.053.133.093.228.117.279l.308-.04Zm-2.782-1.588c-.1-.689-.16-1.088-.181-1.214l-.019-.108c-.255.127-.536.288-.865.483s-.564.353-.739.472Zm1.932-6.122c.037-.444.076-.819.124-1.137l.124-.746a5.489,5.489,0,0,0,.057-.754,3.211,3.211,0,0,0-.118-.812,1.614,1.614,0,0,0-.336-.581,1.065,1.065,0,0,0-.4-.332,1.794,1.794,0,0,0-.594-.2,1.3,1.3,0,0,0-.935.218,1.812,1.812,0,0,0-.694.94,3.518,3.518,0,0,0-.215-.608,1.331,1.331,0,0,0-.335-.419,1.084,1.084,0,0,0-.467-.187,1.6,1.6,0,0,0-.47.014,1.036,1.036,0,0,0-.425.2,1.088,1.088,0,0,0-.342.342,1.717,1.717,0,0,0-.2.339,2.954,2.954,0,0,0-.207.718l-.038.281c-.026.127-.028.2-.036.229s-.007.074-.007.108l-.023.171-.155,1.447-.118.99.313.033c.064-.227.1-.369.117-.426a.51.51,0,0,1,.09-.255c.02-.017.029-.033.048-.036a1.2,1.2,0,0,1,.416.014c.826.1,1.333.158,1.533.185l1.876.255a4.593,4.593,0,0,1,.718.14.8.8,0,0,1,.189.1,2.239,2.239,0,0,1,.047.477c0,.1,0,.187.006.258l.355.064C148.738,248.844,148.771,248.5,148.781,248.377ZM145.62,246.9a3.872,3.872,0,0,0,.083-.415,1.7,1.7,0,0,0-.1-1.039.993.993,0,0,0-.795-.456.925.925,0,0,0-.755.221,1.474,1.474,0,0,0-.42.927c-.009.124-.019.3-.019.491a2.946,2.946,0,0,0,.292.041c.255.02.6.064,1.054.124l.373.068A2.413,2.413,0,0,1,145.62,246.9Zm2.816.336a1.413,1.413,0,0,0,.2-.519,1.842,1.842,0,0,0-.037-.841,1.026,1.026,0,0,0-.355-.524,1.591,1.591,0,0,0-.664-.244,1.394,1.394,0,0,0-.705.061,1.137,1.137,0,0,0-.55.47,2.586,2.586,0,0,0-.246.923.927.927,0,0,0-.014.39l.54.071.651.1,1.016.128A.587.587,0,0,0,148.436,247.237Zm1.455-4.579c.088-.285.16-.506.212-.654l.312-.727c.161-.316.254-.489.275-.526a.566.566,0,0,0,.054-.1,1.182,1.182,0,0,1,.053-.152.386.386,0,0,1,.033-.088.772.772,0,0,0-.142-.057.952.952,0,0,0-.212-.068c-.078.134-.125.217-.14.235a2.479,2.479,0,0,1-.261.433.2.2,0,0,1-.1-.026l-.157-.061-.829-.333-.547-.229-1.091-.437c-.255-.1-.608-.248-1.07-.443-.078-.023-.18-.057-.3-.1a1.833,1.833,0,0,1-.3-.154,2.17,2.17,0,0,1,.038-.392c.021-.154.037-.295.043-.422-.071-.033-.135-.061-.179-.085l-.131-.043c-.019.054-.06.181-.128.38-.121.37-.215.641-.282.8-.014.037-.057.128-.123.271l-.52,1.16.362.137c.02-.034.041-.085.067-.137a1.936,1.936,0,0,1,.326-.517.968.968,0,0,1,.148.027l.178.061.48.18.214.1.547.217c.017.006.3.13.835.365l.228.085.937.386.487.2a.708.708,0,0,1,.319.214,1.723,1.723,0,0,1-.02.46c-.023.14-.033.244-.044.3l.3.121C149.8,242.975,149.835,242.849,149.891,242.658Zm1.872-4.1c.242-.376.45-.694.642-.952l.457-.6a4.926,4.926,0,0,0,.409-.645,3.548,3.548,0,0,0,.276-.762,1.909,1.909,0,0,0-.023-.68,1.222,1.222,0,0,0-.2-.479,2.268,2.268,0,0,0-.43-.453,1.322,1.322,0,0,0-.935-.241,1.88,1.88,0,0,0-1.054.506,4.83,4.83,0,0,0,.1-.641,1.272,1.272,0,0,0-.108-.526,1.089,1.089,0,0,0-.328-.385,1.336,1.336,0,0,0-.422-.207,1.17,1.17,0,0,0-.464-.034,1.441,1.441,0,0,0-.464.151,2.787,2.787,0,0,0-.332.207,2.613,2.613,0,0,0-.51.533l-.17.232c-.08.1-.121.164-.142.191a.351.351,0,0,0-.061.087l-.1.144-.822,1.2-.567.821.264.184c.161-.174.265-.286.3-.326a.561.561,0,0,1,.2-.182.09.09,0,0,1,.067-.011,2.184,2.184,0,0,1,.359.207c.68.472,1.1.764,1.254.882l1.543,1.1a6.629,6.629,0,0,1,.573.466.713.713,0,0,1,.114.178,1.7,1.7,0,0,1-.182.442l-.111.238.283.214C151.5,238.951,151.7,238.659,151.762,238.56Zm-2.1-2.794a2.787,2.787,0,0,0,.266-.326,1.787,1.787,0,0,0,.4-.964.977.977,0,0,0-.49-.775.916.916,0,0,0-.764-.16,1.457,1.457,0,0,0-.808.621c-.07.107-.154.251-.249.433.057.044.135.093.236.168.214.138.507.335.866.6l.3.229C149.475,235.632,149.55,235.686,149.661,235.766Zm2.332,1.624a1.346,1.346,0,0,0,.412-.368,1.874,1.874,0,0,0,.365-.756.956.956,0,0,0-.073-.634,1.437,1.437,0,0,0-.474-.526,1.26,1.26,0,0,0-.651-.272,1.115,1.115,0,0,0-.7.155,2.81,2.81,0,0,0-.65.694,1.238,1.238,0,0,0-.2.336l.442.322.533.4.833.588A.406.406,0,0,0,151.993,237.39Zm4.611-11.068c.319-.127.526-.16.623-.1a2.668,2.668,0,0,1,.417.748l.856,1.939a6.022,6.022,0,0,0,.444.839,1.745,1.745,0,0,0,.635.573,1.723,1.723,0,0,0,.879.138,3.234,3.234,0,0,0,1.158-.311,3.59,3.59,0,0,0,.909-.556,2.242,2.242,0,0,0,.551-.628,1.677,1.677,0,0,0,.221-.644,1.435,1.435,0,0,0-.034-.511,8.008,8.008,0,0,0-.439-1.137l-.407-.809c-.094-.2-.189-.395-.284-.583a.854.854,0,0,1-.081-.167c-.024-.051-.064-.128-.1-.225-.074-.165-.135-.281-.171-.348a1.288,1.288,0,0,1-.108-.208.188.188,0,0,1-.013-.172,1.377,1.377,0,0,1,.278-.192,1.712,1.712,0,0,0,.3-.189.289.289,0,0,0-.037-.115.6.6,0,0,0-.1-.175l-.073.02a7.013,7.013,0,0,1-.739.369l-.789.311-.322.141.13.318.06-.013.376-.177a.5.5,0,0,1,.359,0c.07.027.142.124.227.282l.114.2c.44.794.8,1.512,1.087,2.168a3.55,3.55,0,0,1,.3.869,1.933,1.933,0,0,1-.023.51.792.792,0,0,1-.142.34,1.31,1.31,0,0,1-.288.355,3.162,3.162,0,0,1-.685.423,1.591,1.591,0,0,1-.745.128,1.026,1.026,0,0,1-.519-.175,1.735,1.735,0,0,1-.526-.65l-.5-.992-.3-.715-.165-.316-.161-.385-.073-.147c-.027-.05-.06-.118-.1-.2a1.592,1.592,0,0,1-.172-.507c.024-.078.111-.158.268-.225a3.4,3.4,0,0,0,.454-.239l-.007-.031-.115-.237-.027-.054a2.669,2.669,0,0,1-.319.151c-.16.074-.339.164-.541.268s-.417.2-.633.292c-.066.028-.279.115-.644.254l-.436.179c-.048.028-.1.05-.151.077l.16.315A.836.836,0,0,0,156.6,226.322Zm9.26-3.217a1.02,1.02,0,0,1,.355.222.423.423,0,0,1,.107.178,2.436,2.436,0,0,1,.09.711l.05.9.041,1.443,0,.252c0,.1.011.388,0,.862,0,.16-.013.261-.066.3a1.017,1.017,0,0,1-.439.073c-.1,0-.154,0-.174,0a1.336,1.336,0,0,0-.207.024v.165c0,.051.013.11.013.181a.762.762,0,0,0,.155.013l.255-.024c.158-.016.473-.041.945-.064.506.033.811.048.9.04l.175-.011L168.04,228a.942.942,0,0,0-.118-.026,3.482,3.482,0,0,1-.756-.068c-.027-.061-.047-.107-.06-.134a1.191,1.191,0,0,1-.021-.165c-.037-.284-.064-.544-.084-.786l-.048-.58,0-.313c0-.108,0-.207-.01-.308l-.1-1.653.747.631c.308.256.65.56,1.03.9l.574.553.778.731,1.115,1.033.557.531.507-.036-.011-.239c0-.023-.01-.1-.026-.215l.009-.239-.024-.235-.019-.543a1.772,1.772,0,0,0-.014-.241l-.1-1.559c0-.1-.017-.191-.021-.268-.031-.251-.053-.593-.073-1.021-.006-.2-.016-.319-.016-.375-.014-.11-.02-.17-.02-.188a.279.279,0,0,1,.036-.167,2.432,2.432,0,0,1,.232-.165,1.844,1.844,0,0,1,.326-.1.629.629,0,0,0,.2-.09l-.017-.289c-.057,0-.113.006-.185.011l-.963.064-.878.053-.105.02v.264a1.354,1.354,0,0,0,.363.09.831.831,0,0,1,.44.135c.043.038.064.152.073.346,0,.063.034.285.075.67a5.812,5.812,0,0,1,.05.667c.02.245.037.457.054.633s.04.419.058.721l.036.514,0,.111c-1.875-1.737-2.958-2.745-3.257-3.037s-.687-.64-1.158-1.039c-.057,0-.107,0-.138,0s-.113.007-.275.021-.248.016-.272.02a.8.8,0,0,1-.1,0c-.178,0-.272,0-.315,0-.063,0-.2.01-.37.026l-.124,0-.388.016.033.312A3.173,3.173,0,0,1,165.865,223.105Zm8.3,5.482c.3.047.521.086.678.12l.765.2c.335.114.517.189.558.2a.642.642,0,0,0,.11.04c.009,0,.076.011.164.033a.439.439,0,0,1,.081.017c.021-.064.033-.111.047-.147a1.835,1.835,0,0,0,.031-.218c-.14-.06-.227-.093-.248-.108a3.228,3.228,0,0,1-.47-.194.3.3,0,0,1,.016-.1l.041-.168.208-.866.154-.574.282-1.144c.061-.264.161-.633.292-1.117.011-.083.036-.18.061-.311a1.885,1.885,0,0,1,.1-.321c.1,0,.239-.014.4-.009s.3-.006.426-.013c.021-.081.038-.144.053-.194.007-.034.023-.081.03-.134-.058-.014-.188-.037-.4-.073-.383-.074-.658-.127-.826-.17l-.288-.081-1.217-.362-.084.379a.686.686,0,0,0,.145.05,1.762,1.762,0,0,1,.557.252.914.914,0,0,1,0,.142l-.046.189-.1.5-.068.227-.142.576c0,.019-.081.311-.242.879l-.056.231-.248.98-.127.516a.829.829,0,0,1-.17.349,1.8,1.8,0,0,1-.464.046c-.132,0-.237,0-.3,0l-.078.311C173.841,228.532,173.974,228.556,174.165,228.587Zm5.717-4.074a1.511,1.511,0,0,1,.312.249.51.51,0,0,1,.078.222c0,.046-.01.376-.047.983l-.12,1.309-.148,2.061c-.067.593-.105.933-.125,1.03s-.027.19-.038.285a1.724,1.724,0,0,0,.211.117,1.2,1.2,0,0,0,.2.1q.2-.167.668-.631l.078-.05c.246-.217.4-.34.433-.375.145-.134.293-.256.417-.366a4.908,4.908,0,0,0,.375-.318l1.2-1.031a11.462,11.462,0,0,1,1.013-.821.6.6,0,0,1,.182-.074,4.317,4.317,0,0,1,.727.071.726.726,0,0,0,.074-.145l.076-.127c-.1-.046-.237-.1-.4-.168a4.867,4.867,0,0,1-.576-.262c-.215-.118-.425-.241-.64-.385s-.348-.224-.389-.246a1.539,1.539,0,0,0-.113.174.459.459,0,0,0-.038.138c.038.031.094.061.147.1a.788.788,0,0,1,.132.1.852.852,0,0,1,.313.309.167.167,0,0,1,.013.171,1.053,1.053,0,0,1-.227.262q-.162.152-.457.436c-.06.067-.1.107-.135.141l-.265.218-1.15,1.044-.531.442c.027-.212.048-.442.063-.688l.1-1.249a11.166,11.166,0,0,1,.118-1.333l.06-.406a.171.171,0,0,1,.037-.094.154.154,0,0,1,.09-.078.6.6,0,0,1,.328.014c.047.01.214.071.489.175.014-.021.064-.135.161-.325l-.282-.154c-.1-.033-.235-.088-.415-.168-.246-.11-.407-.187-.483-.232a12.393,12.393,0,0,1-1.247-.729c-.031-.014-.11-.066-.238-.14l-.184.342Zm7.143,4.16c.05.054.081.11.128.152a2.886,2.886,0,0,1,.293.4c.026.043.056.085.07.113a.206.206,0,0,1,.046.14.665.665,0,0,0-.054.071l-.373.4-.363.348-.493.51-.369.345-1.2,1.174-.093.093c-.094.088-.154.151-.185.184a.932.932,0,0,1-.269.192,2.64,2.64,0,0,1-.543-.362,3.011,3.011,0,0,0-.276-.209l-.219.221.389.373.127.133c.387.353.7.655.949.915.493.511.915.957,1.247,1.339.482.54.786.865.9.99.078.077.194.187.329.319l.42-.3.715-.469.122-.071a1.412,1.412,0,0,1,.15-.118,1.222,1.222,0,0,0-.108-.1,1.077,1.077,0,0,0-.167-.157,2.255,2.255,0,0,1-.945.219,1.066,1.066,0,0,1-.584-.178,5.281,5.281,0,0,1-.8-.694,3.635,3.635,0,0,1-.712-.869.247.247,0,0,1,.08-.255l.691-.658c.175-.165.386-.366.634-.613a.9.9,0,0,1,.11-.105c.178.144.419.38.732.7a3.761,3.761,0,0,1,.436.5.318.318,0,0,1,.036.211,1.824,1.824,0,0,1-.265.476,2.9,2.9,0,0,0-.16.245l.221.231.068-.064c.064-.064.161-.157.269-.282.127-.13.212-.228.269-.279s.1-.09.157-.142.215-.2.436-.415c.1-.094.244-.235.423-.435l-.18-.182-.05-.044a4.418,4.418,0,0,1-.576.343.439.439,0,0,1-.235.033,1.016,1.016,0,0,1-.353-.242c-.165-.148-.444-.412-.8-.789-.038-.04-.078-.091-.125-.15l.4-.386.541-.511c.363-.356.574-.556.624-.613.2.2.433.429.685.689.222.224.422.447.6.661.1.125.158.192.175.214a1.174,1.174,0,0,1,.175.231,2.088,2.088,0,0,1-.1.489l-.1.355c-.048.117-.09.2-.114.264.044.06.083.1.1.118l.134.124a.712.712,0,0,0,.061-.053l.128-.134.661-.642a.31.31,0,0,0,.107-.217,4.634,4.634,0,0,0-.5-.623l-.564-.576c-.372-.392-.795-.806-1.279-1.267-.319-.308-.51-.5-.583-.577a5.481,5.481,0,0,1-.534-.62c-.07-.1-.17-.214-.279-.348Zm1.046,8.89a1.333,1.333,0,0,0-.135.074l.1.172a4.655,4.655,0,0,0,.238.443l.315.536c.014.028.038.08.077.15.051.1.187.456.416,1.053l.085.165c.006.016.021.046.047.1a2.2,2.2,0,0,0,.311-.128,3.792,3.792,0,0,0-.117-.614,1.125,1.125,0,0,1-.04-.343l.768-.339.876-.454a2.247,2.247,0,0,1,.279-.121c.066.123.113.215.144.268a.87.87,0,0,1,.118.452,1.928,1.928,0,0,1-.306.5c-.426.563-.739.962-.94,1.2-.074.1-.188.246-.329.457l-.2.254c.024.05.057.1.1.172.094.152.144.241.158.268l.2.4c.058.124.107.234.142.326l.076.158.074.221.05.08.043.105a.322.322,0,0,0,.1-.041.373.373,0,0,0,.105-.08,1.34,1.34,0,0,0,0-.34,1.345,1.345,0,0,1,0-.379,4,4,0,0,1,.326-.548l.727-1.144c.075-.117.171-.276.269-.463.054-.091.1-.164.144-.225a1.69,1.69,0,0,0,.885.553,1.286,1.286,0,0,0,.852-.1,1.384,1.384,0,0,0,.727-.95,2.116,2.116,0,0,0-.218-1.507,10.529,10.529,0,0,0-.529-.969l-.268-.484-.111-.208c-.011-.016-.051-.125-.135-.325-.1-.184-.157-.308-.187-.365a2.419,2.419,0,0,0-.209-.359l-.051.009-.235.121c.024.078.087.231.171.454l.064.255c-.148.084-.5.265-1.051.536-.255.124-.523.252-.816.387l-.221.094-.375.192-.484.221-.882.44c-.224.105-.35.167-.389.182s-.068.013-.131.027a2.116,2.116,0,0,1-.266-.326.835.835,0,0,0-.235-.265A.611.611,0,0,0,188.07,237.562Zm3.6.49c.051.135.1.224.123.285a1.624,1.624,0,0,0,.717.849.889.889,0,0,0,.792-.034,1.659,1.659,0,0,0,.429-.3.972.972,0,0,0,.254-.336,1.2,1.2,0,0,0,.048-.5,2.269,2.269,0,0,0-.221-.594,1.508,1.508,0,0,0-.178-.3l-.074.028-.529.269-.34.148-.433.219c-.124.051-.281.127-.482.215Zm5.223,7.243a3.3,3.3,0,0,0-.048-.635,2.04,2.04,0,0,0-.774-1.376,1.627,1.627,0,0,0-1.271-.266,1.811,1.811,0,0,0-.688.318,1.558,1.558,0,0,0-.5.61,4.715,4.715,0,0,0-.289,1.214,3.9,3.9,0,0,1-.261,1.077.86.86,0,0,1-.543.416.9.9,0,0,1-.526-.081.939.939,0,0,1-.415-.392,1.62,1.62,0,0,1-.211-.5,1.352,1.352,0,0,1,0-.507,1.038,1.038,0,0,1,.135-.435,1.771,1.771,0,0,1,.3-.369,5.888,5.888,0,0,1,.54-.386l-.085-.4-.168.031-.4.084c-.36.085-.557.13-.6.131l-.047.014c-.04.018-.068.036-.073.056a.964.964,0,0,0-.056.3l-.056.557a4.035,4.035,0,0,0,.056.749,2.73,2.73,0,0,0,.228.742,2.218,2.218,0,0,0,.368.521,2.879,2.879,0,0,0,.39.35,1.237,1.237,0,0,0,.45.188,2.244,2.244,0,0,0,.839-.006,1.8,1.8,0,0,0,.607-.219,1.753,1.753,0,0,0,.453-.454,1.911,1.911,0,0,0,.268-.652,4.077,4.077,0,0,0,.118-.694,2.57,2.57,0,0,1,.291-1.141.826.826,0,0,1,.494-.355.731.731,0,0,1,.6.142,1.033,1.033,0,0,1,.365.64,1.063,1.063,0,0,1-.208.855,2.35,2.35,0,0,1-.7.534V246l.046.322.019.041a.877.877,0,0,0,.168-.01,6.412,6.412,0,0,0,.7-.189c.192-.067.339-.123.434-.168A5.6,5.6,0,0,0,196.889,245.3Zm-5.488,3.614c.027.3.034.533.034.687l-.024.789c-.043.355-.064.553-.067.594-.011.058-.02.1-.02.111s0,.071.009.171v.083c.068.007.117.016.15.016.061,0,.14-.009.222-.016a2.639,2.639,0,0,0,.041-.275,5.015,5.015,0,0,1,.09-.5.948.948,0,0,1,.1-.009h.172l.893.013.591.02,1.18.014c.268.006.654.016,1.158.036a2.515,2.515,0,0,1,.306-.007,1.427,1.427,0,0,1,.338.03,3.376,3.376,0,0,1,.114.38,2.135,2.135,0,0,0,.107.407,1.851,1.851,0,0,0,.189.016h.142c0-.058-.007-.2-.016-.41-.023-.393-.023-.67-.023-.841,0-.04,0-.134.017-.3l.073-1.269h-.39a.706.706,0,0,0-.017.16,1.749,1.749,0,0,1-.114.591.949.949,0,0,1-.148.028l-.189.006-.507.009-.235-.017h-.6c-.017,0-.315-.019-.906-.048h-.242l-1.016-.031h-.523a.769.769,0,0,1-.379-.085,1.779,1.779,0,0,1-.141-.439c-.031-.14-.054-.232-.071-.3l-.325,0C191.375,248.589,191.39,248.714,191.4,248.909Zm5.436,5a8.823,8.823,0,0,1-1.029-.67,1.068,1.068,0,0,0-.232.212c-.007.04.024.1.09.2a2.779,2.779,0,0,1,.439.707,1.362,1.362,0,0,1-.068.561,7.957,7.957,0,0,1-.258.865.07.07,0,0,1-.036.051.078.078,0,0,1-.067.013,7.3,7.3,0,0,1-.818-.191l-1.633-.419c-.755-.2-1.294-.353-1.641-.466a.654.654,0,0,1-.2-.11,4.434,4.434,0,0,1-.026-.675.641.641,0,0,0-.083-.4l-.037-.006-.1-.026c-.021,0-.057-.014-.1-.023-.014.053-.04.157-.068.325-.078.426-.132.688-.15.775-.147.54-.254.916-.333,1.115a7.2,7.2,0,0,0-.235.746,1.228,1.228,0,0,1-.038.158,1.086,1.086,0,0,0,.11.043c.021,0,.087.014.189.023a1.507,1.507,0,0,0,.133-.208,1.824,1.824,0,0,0,.15-.3,1.629,1.629,0,0,1,.128-.238,1.209,1.209,0,0,1,.462.066l.563.151,1.366.355,1.261.339.587.157a1.481,1.481,0,0,1,.266.091,2.807,2.807,0,0,1-.067.308,8.194,8.194,0,0,1-.265.9.247.247,0,0,1-.1.105,2.239,2.239,0,0,1-.395.071,2.66,2.66,0,0,0-.547.122,1.53,1.53,0,0,0-.02.321,1.271,1.271,0,0,0,.2.074l.218.06.378.105q.611.15.9.227c.019-.054.029-.1.04-.127l.05-.189a1.11,1.11,0,0,0-.107-.076.835.835,0,0,1-.174-.171l.031-.268.356-1.332.261-.969.142-.529.016-.081c.046-.172.1-.369.161-.594.09-.353.147-.547.161-.586a2.038,2.038,0,0,1,.328-.11.321.321,0,0,0,.085-.024l.071-.265C197.088,254.064,196.984,254,196.837,253.913Zm-2.429,7.54c-.017-.014-.044-.03-.054-.038a.36.36,0,0,0-.067-.023c-.177.178-.272.269-.3.291a.579.579,0,0,1-.168.083c-.274.018-.429.031-.457.031l-.774-.013L191,261.8a1.666,1.666,0,0,0-.265.016,1.071,1.071,0,0,1-.7-.1l-.087-.053c-.024-.017-.105-.067-.245-.155s-.4-.259-.782-.5c-.026-.017-.1-.066-.215-.142.009-.031.014-.068.023-.108l.306-.781c-.051-.036-.088-.061-.117-.078a.792.792,0,0,0-.118-.068l-.17.255a1.826,1.826,0,0,0-.16.293.69.69,0,0,1-.094.178l-.2.309-.269.422-.188.268-.293.378-.293.426a.918.918,0,0,0,.1.071.428.428,0,0,0,.085.064.084.084,0,0,0,.093.016,1.608,1.608,0,0,0,.319-.359c.1-.11.161-.184.2-.215a.265.265,0,0,1,.067-.013l.966.608a1.657,1.657,0,0,1,.191.138l.1.063.321.215.115.077a.464.464,0,0,1,.091.144c.09.171.238.54.449,1.088l.41.963a3.035,3.035,0,0,1,.321.852,1.352,1.352,0,0,1-.142.517l-.014.058.276.181a.681.681,0,0,1,.061-.11c.077-.135.13-.244.174-.335l.038-.063.115-.182a.38.38,0,0,1,.071-.081l.536-.744a2.332,2.332,0,0,0-.291-.152c-.023.023-.056.058-.1.1a1.106,1.106,0,0,1-.121.128.732.732,0,0,1-.118.151.315.315,0,0,1-.1.063.393.393,0,0,1-.08-.03.571.571,0,0,1-.115-.171l-.355-.685-.014-.034c-.179-.4-.3-.727-.389-.966l-.293-.735a1.8,1.8,0,0,1,.268-.011h.18c.043,0,.093,0,.142,0,.028,0,.067,0,.093,0,.286.011.445.016.484.011.151,0,.308,0,.469,0a6.575,6.575,0,0,1,1.168.014l.048.041v.031c-.056.12-.094.205-.127.278l-.074.182a.944.944,0,0,0-.078.238l.185.127a.46.46,0,0,0,.088.029l.02-.029a.43.43,0,0,0,.027-.061,5.526,5.526,0,0,1,.34-.61c.124-.185.285-.423.513-.719a3.633,3.633,0,0,1,.231-.286l.02-.046a1.129,1.129,0,0,1,.094-.118l.031-.033a2.243,2.243,0,0,0,.275-.486A.984.984,0,0,1,194.408,261.453Z" transform="translate(-140.743 -220.08)" fill="#fff" fill-rule="evenodd"/>
  </g>
  <g id="Group_203" data-name="Group 203" transform="translate(69.575 1.551)">
    <path id="Path_233" data-name="Path 233" d="M190.873,234.385c-.264-.115-.313-.2-.313-.563,0-.909.066-1.9.083-2.165.017-.248.066-.43.2-.43.148,0,.165.15.165.282a3.51,3.51,0,0,0,.148.843,2.28,2.28,0,0,0,2.365,1.67,2.01,2.01,0,0,0,2.217-1.885c0-.811-.249-1.571-1.621-2.646l-.761-.6c-1.818-1.422-2.448-2.58-2.448-3.919,0-1.818,1.521-3.124,3.821-3.124a8.017,8.017,0,0,1,2.2.281c.148.033.231.083.231.2,0,.215-.066.7-.066,1.984,0,.363-.05.5-.181.5s-.165-.1-.165-.3a2,2,0,0,0-.43-1.091,2.1,2.1,0,0,0-1.8-.809,1.739,1.739,0,0,0-1.967,1.7c0,.761.379,1.339,1.752,2.381l.463.348c2,1.5,2.711,2.646,2.711,4.217a3.33,3.33,0,0,1-1.554,2.876,4.769,4.769,0,0,1-2.628.678A5.726,5.726,0,0,1,190.873,234.385Z" transform="translate(-190.113 -221.853)" fill="#461a55"/>
    <path id="Path_234" data-name="Path 234" d="M207.387,227.273c.05,0,.1-.033.1-.115v-.348c0-2.513,0-2.976-.034-3.506-.033-.561-.164-.826-.709-.942a3.433,3.433,0,0,0-.645-.05c-.182,0-.281-.033-.281-.15s.115-.148.348-.148c.892,0,1.933.05,2.379.05.4,0,1.439-.05,2.084-.05.231,0,.348.033.348.148s-.1.15-.3.15a2.991,2.991,0,0,0-.48.05c-.446.083-.578.363-.611.942-.034.53-.034.993-.034,3.506v2.91c0,1.52,0,2.826.083,3.537.05.463.15.828.647.893a7,7,0,0,0,.842.066c.182,0,.265.05.265.132,0,.117-.133.165-.331.165-1.076,0-2.117-.048-2.58-.048-.38,0-1.422.048-2.067.048-.231,0-.346-.048-.346-.165,0-.083.066-.132.264-.132a2.721,2.721,0,0,0,.6-.066c.332-.066.413-.43.48-.909.083-.7.083-2,.083-3.522v-1.456a.1.1,0,0,0-.1-.1H201.07c-.05,0-.1.016-.1.1v1.456c0,1.52,0,2.826.083,3.537.05.463.148.828.645.893a7,7,0,0,0,.843.066c.181,0,.264.05.264.132,0,.117-.133.165-.331.165-1.074,0-2.117-.048-2.58-.048-.379,0-1.422.048-2.083.048-.215,0-.331-.048-.331-.165,0-.083.067-.132.265-.132a2.732,2.732,0,0,0,.6-.066c.33-.066.413-.43.479-.909.083-.7.083-2,.083-3.522v-2.91c0-2.513,0-2.976-.033-3.506-.033-.561-.165-.826-.711-.942a3.422,3.422,0,0,0-.645-.05c-.181,0-.281-.033-.281-.15s.115-.148.348-.148c.892,0,1.935.05,2.381.05.4,0,1.439-.05,2.083-.05.232,0,.348.033.348.148s-.1.15-.3.15a2.976,2.976,0,0,0-.479.05c-.447.083-.58.363-.613.942-.033.53-.033.993-.033,3.506v.348c0,.083.048.115.1.115Z" transform="translate(-187.278 -221.784)" fill="#461a55"/>
    <path id="Path_235" data-name="Path 235" d="M211.71,230.368c-.083,0-.117.033-.15.132l-.893,2.265a3.21,3.21,0,0,0-.248,1.009c0,.3.15.511.661.511h.248c.2,0,.249.034.249.132,0,.133-.1.165-.282.165-.529,0-1.239-.048-1.752-.048-.182,0-1.091.048-1.95.048-.215,0-.315-.033-.315-.165,0-.1.066-.132.2-.132a4.856,4.856,0,0,0,.513-.033c.761-.1,1.074-.661,1.406-1.487l4.15-10.252c.2-.48.3-.661.463-.661.148,0,.248.148.413.529.4.909,3.042,7.523,4.1,10.036.628,1.489,1.108,1.72,1.456,1.8a3.6,3.6,0,0,0,.694.066c.132,0,.215.017.215.132,0,.133-.15.165-.761.165-.6,0-1.8,0-3.124-.033-.3-.016-.5-.016-.5-.133,0-.1.067-.132.232-.148a.27.27,0,0,0,.148-.38l-1.322-3.406a.16.16,0,0,0-.167-.115Zm3.372-.828c.083,0,.1-.048.083-.1l-1.487-4.067c-.017-.067-.034-.15-.083-.15s-.084.083-.1.15l-1.521,4.05c-.016.067,0,.115.066.115Z" transform="translate(-183.014 -221.853)" fill="#461a55"/>
    <path id="Path_236" data-name="Path 236" d="M218.781,226.81c0-2.513,0-2.976-.034-3.506-.031-.561-.164-.826-.709-.942a3.423,3.423,0,0,0-.645-.05c-.182,0-.281-.033-.281-.15s.115-.148.363-.148c.876,0,1.918.05,2.381.05.678,0,1.637-.05,2.4-.05a4.023,4.023,0,0,1,3.076.943,2.872,2.872,0,0,1,.826,1.967,3.89,3.89,0,0,1-4.067,4,2.558,2.558,0,0,1-.346-.016c-.083-.017-.2-.033-.2-.148,0-.132.117-.182.463-.182a2.6,2.6,0,0,0,2.215-2.728,3.182,3.182,0,0,0-.976-2.48,2.453,2.453,0,0,0-1.653-.645,2.333,2.333,0,0,0-.645.067c-.083.033-.131.131-.131.313v6.614c0,1.52,0,2.826.081,3.537.05.463.15.828.645.893a7.047,7.047,0,0,0,.843.066c.182,0,.265.05.265.132,0,.117-.132.165-.315.165-1.091,0-2.133-.048-2.563-.048-.38,0-1.422.048-2.083.048-.215,0-.331-.048-.331-.165,0-.083.066-.132.265-.132a2.717,2.717,0,0,0,.594-.066c.332-.066.415-.43.48-.909.083-.7.083-2,.083-3.522Z" transform="translate(-178.839 -221.784)" fill="#461a55"/>
    <path id="Path_237" data-name="Path 237" d="M226.553,226.81c0-2.513,0-2.976-.033-3.506-.033-.561-.2-.842-.561-.926a2.408,2.408,0,0,0-.6-.066c-.165,0-.265-.033-.265-.165,0-.1.132-.132.4-.132.63,0,1.671.05,2.15.05.415,0,1.389-.05,2.019-.05.214,0,.346.033.346.132,0,.132-.1.165-.265.165a2.844,2.844,0,0,0-.5.05c-.446.083-.578.363-.611.942-.034.53-.034.993-.034,3.506v2.91c0,1.6,0,2.909.067,3.62.05.447.165.745.661.811a7.047,7.047,0,0,0,.843.066c.182,0,.265.05.265.132,0,.117-.133.165-.315.165-1.091,0-2.133-.048-2.579-.048-.38,0-1.422.048-2.084.048-.214,0-.331-.048-.331-.165,0-.083.067-.132.265-.132a2.732,2.732,0,0,0,.6-.066c.331-.066.43-.348.48-.826.081-.7.081-2,.081-3.6Z" transform="translate(-175.447 -221.784)" fill="#461a55"/>
    <path id="Path_238" data-name="Path 238" d="M233.1,232.335c.034,1.289.248,1.719.578,1.835a2.618,2.618,0,0,0,.86.115c.182,0,.281.034.281.132,0,.133-.148.165-.38.165-1.074,0-1.735-.048-2.05-.048-.15,0-.926.048-1.785.048-.215,0-.365-.016-.365-.165,0-.1.1-.132.265-.132a2.951,2.951,0,0,0,.744-.081c.43-.133.5-.613.513-2.051l.15-9.739c0-.331.05-.561.214-.561.182,0,.331.215.613.511.2.215,2.711,2.861,5.126,5.258,1.124,1.124,3.356,3.506,3.637,3.77h.084l-.167-7.424c-.016-1.009-.165-1.323-.563-1.487a2.68,2.68,0,0,0-.876-.1c-.2,0-.264-.05-.264-.15,0-.131.181-.148.43-.148.859,0,1.653.05,2,.05.182,0,.809-.05,1.62-.05.215,0,.38.017.38.148,0,.1-.1.15-.3.15a1.8,1.8,0,0,0-.5.05c-.463.132-.6.479-.613,1.4l-.181,10.434c0,.363-.066.513-.215.513-.182,0-.38-.182-.563-.365-1.041-.992-3.158-3.157-4.876-4.861-1.8-1.785-3.638-3.8-3.935-4.117h-.05Z" transform="translate(-173.264 -221.853)" fill="#461a55"/>
    <path id="Path_239" data-name="Path 239" d="M253.284,233.476c0,.446-.017.479-.215.6a9.374,9.374,0,0,1-3.985.744c-4.052,0-7.639-1.918-7.639-6.482a6.181,6.181,0,0,1,2.876-5.406,8.015,8.015,0,0,1,4.448-1.074,19.988,19.988,0,0,1,2.926.264A10.8,10.8,0,0,0,253,222.3c.2.016.232.083.232.2a22.4,22.4,0,0,0-.115,2.712c0,.264-.05.346-.182.346-.115,0-.15-.083-.165-.215a2.323,2.323,0,0,0-.563-1.372,5.288,5.288,0,0,0-3.687-1.289,4.765,4.765,0,0,0-3.274,1.024,4.925,4.925,0,0,0-1.521,4.052c0,3.554,2.265,6.217,5.755,6.217a3.649,3.649,0,0,0,1.4-.182.586.586,0,0,0,.313-.611v-1.554c0-.826,0-1.456-.016-1.952-.017-.561-.165-.826-.711-.942a3.425,3.425,0,0,0-.645-.05c-.15,0-.248-.033-.248-.132,0-.132.115-.165.348-.165.859,0,1.9.05,2.4.05s1.389-.05,1.935-.05c.215,0,.331.033.331.165,0,.1-.1.132-.215.132a2.654,2.654,0,0,0-.447.05c-.446.083-.611.363-.628.942-.016.5-.016,1.158-.016,1.985Z" transform="translate(-168.506 -221.853)" fill="#461a55"/>
    <path id="Path_240" data-name="Path 240" d="M194,241.606c0,1.587,0,2.828.083,3.522.05.479.148.843.645.909a6.7,6.7,0,0,0,.826.067c.215,0,.281.048.281.132,0,.115-.115.165-.363.165-1.041,0-2.084-.05-2.514-.05s-1.47.05-2.1.05c-.231,0-.346-.034-.346-.165,0-.084.067-.132.248-.132a2.633,2.633,0,0,0,.6-.067c.331-.066.413-.43.48-.909.081-.694.081-1.935.081-3.522V238.7c0-2.513,0-2.976-.033-3.5-.033-.563-.164-.828-.711-.943a3.421,3.421,0,0,0-.644-.05c-.165,0-.282-.033-.282-.132,0-.132.133-.165.38-.165.43,0,.91.017,1.339.017.43.016.811.033,1.041.033.63,0,3.986,0,4.365-.017a3.141,3.141,0,0,0,.68-.066c.1-.033.181-.1.264-.1a.135.135,0,0,1,.115.15c0,.115-.083.313-.132.744-.016.165-.05,1.141-.083,1.339-.016.132-.048.232-.164.232s-.15-.083-.165-.265a1.611,1.611,0,0,0-.1-.628,1.193,1.193,0,0,0-1.091-.5l-2.547-.05c-.1,0-.148.05-.148.231v4.134c0,.1.016.148.115.148l2.117-.016c.281,0,.513,0,.744-.017a.864.864,0,0,0,.711-.3c.083-.1.115-.165.215-.165.067,0,.1.05.1.15s-.083.513-.132,1.024c-.033.331-.067,1.091-.067,1.208,0,.148,0,.313-.165.313-.1,0-.132-.115-.132-.231a1.839,1.839,0,0,0-.1-.513.972.972,0,0,0-.843-.6c-.415-.05-2.167-.05-2.447-.05-.083,0-.115.034-.115.15Z" transform="translate(-190.246 -216.794)" fill="#461a55"/>
    <path id="Path_241" data-name="Path 241" d="M198.871,238.656c0-2.513,0-2.976-.034-3.5-.033-.563-.165-.828-.709-.943a3.438,3.438,0,0,0-.645-.05c-.182,0-.281-.033-.281-.148s.115-.15.363-.15c.876,0,1.918.05,2.413.05.4,0,1.439-.05,2.034-.05.248,0,.363.033.363.15s-.1.148-.264.148a2.513,2.513,0,0,0-.48.05c-.446.083-.578.363-.613.943-.033.529-.033.992-.033,3.5v2.315c0,2.4.48,3.406,1.291,4.067a3.055,3.055,0,0,0,2.066.678,3.234,3.234,0,0,0,2.282-.893c.91-.909.959-2.4.959-4.1v-2.067c0-2.513,0-2.976-.033-3.5-.033-.563-.165-.828-.711-.943a3.231,3.231,0,0,0-.6-.05c-.182,0-.281-.033-.281-.148s.115-.15.348-.15c.842,0,1.885.05,1.9.05.2,0,1.241-.05,1.886-.05.231,0,.346.033.346.15s-.1.148-.3.148a2.51,2.51,0,0,0-.479.05c-.447.083-.58.363-.613.943-.033.529-.033.992-.033,3.5v1.769c0,1.835-.181,3.787-1.571,4.978a4.931,4.931,0,0,1-3.439,1.19,5.317,5.317,0,0,1-3.67-1.141c-.843-.761-1.472-1.984-1.472-4.381Z" transform="translate(-187.293 -216.754)" fill="#461a55"/>
    <path id="Path_242" data-name="Path 242" d="M211.933,234.856l-2.463.067c-.959.033-1.356.115-1.6.479a2,2,0,0,0-.282.58c-.033.131-.081.2-.181.2-.115,0-.148-.083-.148-.265,0-.265.313-1.769.346-1.9.05-.215.1-.313.2-.313a3.855,3.855,0,0,0,.712.2c.479.05,1.108.083,1.653.083h6.549a7.953,7.953,0,0,0,1.14-.083,3.98,3.98,0,0,1,.446-.083c.117,0,.132.1.132.348,0,.346-.048,1.487-.048,1.918-.017.165-.05.265-.15.265-.131,0-.165-.083-.181-.33l-.017-.182c-.033-.43-.48-.893-1.952-.926l-2.083-.05v6.78c0,1.521,0,2.828.083,3.537.05.463.148.828.645.893a6.719,6.719,0,0,0,.843.067c.181,0,.265.048.265.132,0,.115-.132.165-.315.165-1.091,0-2.133-.05-2.6-.05-.379,0-1.42.05-2.083.05-.214,0-.331-.05-.331-.165,0-.084.067-.132.264-.132a2.639,2.639,0,0,0,.6-.067c.33-.066.429-.43.479-.909.083-.694.083-2,.083-3.522Z" transform="translate(-183.024 -216.823)" fill="#461a55"/>
    <path id="Path_243" data-name="Path 243" d="M217.469,238.656c0-2.513,0-2.976-.033-3.5-.033-.563-.165-.828-.711-.943a3.427,3.427,0,0,0-.645-.05c-.181,0-.281-.033-.281-.148s.117-.15.363-.15c.878,0,1.919.05,2.415.05.4,0,1.439-.05,2.033-.05.249,0,.365.033.365.15s-.1.148-.265.148a2.524,2.524,0,0,0-.48.05c-.446.083-.578.363-.611.943-.033.529-.033.992-.033,3.5v2.315c0,2.4.48,3.406,1.289,4.067a3.056,3.056,0,0,0,2.067.678,3.236,3.236,0,0,0,2.282-.893c.909-.909.959-2.4.959-4.1v-2.067c0-2.513,0-2.976-.033-3.5-.034-.563-.165-.828-.711-.943a3.243,3.243,0,0,0-.6-.05c-.182,0-.282-.033-.282-.148s.117-.15.348-.15c.843,0,1.885.05,1.9.05.2,0,1.239-.05,1.885-.05.231,0,.348.033.348.15s-.1.148-.3.148a2.524,2.524,0,0,0-.48.05c-.446.083-.578.363-.611.943-.033.529-.033.992-.033,3.5v1.769c0,1.835-.182,3.787-1.571,4.978a4.933,4.933,0,0,1-3.439,1.19,5.322,5.322,0,0,1-3.671-1.141c-.842-.761-1.472-1.984-1.472-4.381Z" transform="translate(-179.396 -216.754)" fill="#461a55"/>
    <path id="Path_244" data-name="Path 244" d="M228.092,238.656c0-2.513,0-2.976-.033-3.5-.033-.563-.165-.828-.711-.943a3.427,3.427,0,0,0-.645-.05c-.181,0-.281-.033-.281-.148s.115-.15.363-.15c.876,0,1.919.05,2.267.05.561,0,1.818-.05,2.331-.05a5.29,5.29,0,0,1,3.042.711,2.868,2.868,0,0,1,1.124,2.265c0,1.224-.511,2.348-2.183,3.7,1.472,1.852,2.613,3.324,3.589,4.349a3.3,3.3,0,0,0,1.852,1.124,2.636,2.636,0,0,0,.463.05c.133,0,.2.048.2.132,0,.131-.117.165-.315.165h-1.571a3.357,3.357,0,0,1-1.769-.315,7.971,7.971,0,0,1-2.265-2.43c-.661-.909-1.422-2.034-1.637-2.282a.346.346,0,0,0-.3-.115l-1.439-.033c-.081,0-.131.033-.131.132v.231c0,1.539,0,2.845.083,3.539.048.479.148.843.644.909a7.37,7.37,0,0,0,.811.067c.132,0,.2.048.2.132,0,.115-.115.165-.331.165-.959,0-2.183-.05-2.43-.05-.313,0-1.356.05-2.017.05-.215,0-.331-.05-.331-.165,0-.084.067-.132.265-.132a2.633,2.633,0,0,0,.6-.067c.331-.066.413-.43.479-.909.083-.694.083-2,.083-3.522Zm1.952,1.306c0,.182.033.248.148.3a4.373,4.373,0,0,0,1.257.165,1.659,1.659,0,0,0,1.174-.281,2.911,2.911,0,0,0,.976-2.48c0-2.348-1.554-3.026-2.529-3.026a3.628,3.628,0,0,0-.878.066c-.115.033-.148.1-.148.232Z" transform="translate(-174.885 -216.754)" fill="#461a55"/>
    <path id="Path_245" data-name="Path 245" d="M237.089,238.7c0-2.513,0-2.976-.033-3.5-.034-.563-.165-.828-.711-.943a3.427,3.427,0,0,0-.645-.05c-.181,0-.281-.033-.281-.148s.115-.15.363-.15c.446,0,.926.017,1.339.017.43.016.811.033,1.041.033.53,0,3.821,0,4.134-.017a6.694,6.694,0,0,0,.711-.1,1.5,1.5,0,0,1,.265-.067c.083,0,.1.067.1.15,0,.115-.081.313-.131,1.074-.017.165-.05.893-.083,1.091-.017.083-.05.182-.165.182s-.15-.083-.15-.231a1.775,1.775,0,0,0-.1-.6c-.115-.3-.281-.5-1.107-.6-.282-.033-2.017-.067-2.348-.067-.084,0-.117.05-.117.167v4.183c0,.115.017.181.117.181.363,0,2.265,0,2.646-.033a1.156,1.156,0,0,0,.793-.248c.115-.133.182-.215.265-.215.066,0,.115.033.115.133s-.066.363-.132,1.208c-.017.331-.066.992-.066,1.107,0,.132,0,.315-.15.315a.132.132,0,0,1-.15-.15,4.181,4.181,0,0,0-.065-.6c-.083-.331-.313-.578-.926-.644-.315-.033-1.95-.05-2.348-.05-.083,0-.1.066-.1.165v1.306c0,.561-.016,2.083,0,2.563.033,1.141.3,1.389,1.986,1.389a4.166,4.166,0,0,0,1.553-.2c.43-.2.63-.546.744-1.222.034-.182.067-.248.182-.248.133,0,.133.131.133.3a12.984,12.984,0,0,1-.215,1.836c-.115.43-.264.43-.893.43-1.239,0-2.15-.034-2.859-.05-.711-.034-1.224-.05-1.72-.05-.182,0-.547,0-.943.016-.38,0-.811.034-1.141.034-.215,0-.331-.05-.331-.165,0-.084.067-.132.265-.132a2.609,2.609,0,0,0,.594-.067c.332-.066.415-.43.48-.909.083-.694.083-2,.083-3.522Z" transform="translate(-171.065 -216.794)" fill="#461a55"/>
    <path id="Path_246" data-name="Path 246" d="M243.615,246.231c-.264-.115-.313-.2-.313-.561,0-.91.066-1.9.083-2.167.016-.248.066-.43.2-.43.148,0,.165.15.165.282a3.486,3.486,0,0,0,.148.843,2.28,2.28,0,0,0,2.365,1.67,2.011,2.011,0,0,0,2.217-1.885c0-.811-.249-1.571-1.621-2.646l-.761-.6c-1.818-1.422-2.447-2.579-2.447-3.919,0-1.818,1.521-3.124,3.821-3.124a8.019,8.019,0,0,1,2.2.281c.148.033.231.083.231.2,0,.215-.066.7-.066,1.984,0,.365-.05.5-.181.5s-.165-.1-.165-.3a2.014,2.014,0,0,0-.43-1.091,2.1,2.1,0,0,0-1.8-.809,1.74,1.74,0,0,0-1.967,1.7c0,.761.379,1.339,1.752,2.381l.463.348c2,1.5,2.711,2.646,2.711,4.217a3.333,3.333,0,0,1-1.554,2.876,4.769,4.769,0,0,1-2.628.678A5.722,5.722,0,0,1,243.615,246.231Z" transform="translate(-167.718 -216.823)" fill="#461a55"/>
    <path id="Path_247" data-name="Path 247" d="M191.551,249.626c0-2.1,0-2.482-.028-2.913-.026-.459-.134-.674-.58-.769a2.5,2.5,0,0,0-.457-.04c-.054,0-.108-.027-.108-.081,0-.081.067-.108.215-.108.607,0,1.457.041,1.524.041.148,0,1.174-.041,1.591-.041a4.152,4.152,0,0,1,2.469.594,2.358,2.358,0,0,1,.93,1.835,4.163,4.163,0,0,1-1.631,3.116c1.105,1.416,2.023,2.617,2.805,3.453a2.793,2.793,0,0,0,1.647.972,3.276,3.276,0,0,0,.526.04c.067,0,.121.04.121.081,0,.081-.081.108-.323.108h-.959a2.755,2.755,0,0,1-1.443-.256,7.058,7.058,0,0,1-1.821-1.983c-.567-.742-1.2-1.645-1.47-2a.217.217,0,0,0-.175-.081l-1.66-.027c-.067,0-.094.04-.094.108V252c0,1.295,0,2.361.068,2.928.04.39.121.687.526.741a5.816,5.816,0,0,0,.607.054c.08,0,.108.04.108.081,0,.067-.068.108-.217.108-.742,0-1.593-.041-1.66-.041-.013,0-.863.041-1.268.041-.148,0-.215-.027-.215-.108,0-.041.027-.081.108-.081a2.075,2.075,0,0,0,.4-.054c.269-.054.338-.35.39-.741.068-.567.068-1.633.068-2.928Zm1.078,1.174a.179.179,0,0,0,.094.162,3.731,3.731,0,0,0,1.417.215,1.742,1.742,0,0,0,1.011-.256,2.462,2.462,0,0,0,.822-2.077c0-1.685-.889-2.7-2.334-2.7a4.091,4.091,0,0,0-.9.081.162.162,0,0,0-.108.162Z" transform="translate(-190.19 -211.721)" fill="#461a55"/>
    <path id="Path_248" data-name="Path 248" d="M198.883,249.658c0-2.1,0-2.482-.028-2.913-.026-.459-.134-.674-.58-.769a3.033,3.033,0,0,0-.39-.04c-.1-.013-.175-.027-.175-.081,0-.081.067-.108.215-.108.311,0,.674,0,1.524.041.1,0,2.779,0,3.09-.014a2.266,2.266,0,0,0,.62-.08.321.321,0,0,1,.148-.054c.041,0,.054.054.054.121a5.838,5.838,0,0,0-.108.634c-.013.2-.027.459-.053.809-.014.135-.054.229-.108.229-.081,0-.108-.067-.108-.175a1.327,1.327,0,0,0-.068-.446c-.094-.309-.376-.445-.97-.5-.229-.027-1.7-.04-1.848-.04-.056,0-.081.04-.081.134v3.724c0,.094.013.134.081.134.175,0,1.833,0,2.144-.026.365-.027.54-.068.674-.229.068-.081.108-.135.162-.135s.068.027.068.108-.068.309-.108.755c-.04.417-.04.728-.054.917-.014.134-.04.2-.094.2-.081,0-.1-.108-.1-.217a1.233,1.233,0,0,0-.053-.378c-.054-.2-.217-.39-.7-.446-.363-.04-1.7-.067-1.929-.067a.085.085,0,0,0-.094.1v1.187c0,.459-.014,2.023,0,2.306.026.553.107.85.444.984a3.242,3.242,0,0,0,1.12.121,4.46,4.46,0,0,0,1.214-.121c.432-.134.58-.417.688-1,.027-.15.054-.2.122-.2s.08.107.08.2-.108,1.024-.175,1.308c-.094.35-.2.35-.728.35-1,0-1.443-.027-1.969-.04s-1.161-.041-1.687-.041c-.323,0-.648.054-1,.041-.148,0-.215-.027-.215-.108,0-.041.067-.067.148-.081a1.708,1.708,0,0,0,.311-.04c.282-.068.459-.256.484-1.268.014-.527.028-1.214.028-2.415Z" transform="translate(-187.077 -211.753)" fill="#461a55"/>
    <path id="Path_249" data-name="Path 249" d="M203.954,255.794c-.189-.1-.2-.148-.2-.513,0-.675.054-1.214.067-1.43.014-.148.041-.215.108-.215s.094.04.094.148a2.328,2.328,0,0,0,.041.5,1.835,1.835,0,0,0,2,1.376,1.8,1.8,0,0,0,1.929-1.795c0-.93-.39-1.469-1.551-2.428l-.607-.5c-1.429-1.174-1.752-2.01-1.752-2.928,0-1.443,1.078-2.428,2.791-2.428a5.215,5.215,0,0,1,1.255.135,2.275,2.275,0,0,0,.472.067c.108,0,.135.027.135.094s-.054.513-.054,1.43c0,.215-.027.311-.094.311s-.1-.068-.108-.175a2.337,2.337,0,0,0-.175-.675c-.081-.148-.444-.715-1.687-.715a1.533,1.533,0,0,0-1.658,1.566c0,.768.35,1.254,1.645,2.265l.378.3c1.591,1.254,1.969,2.09,1.969,3.17a2.791,2.791,0,0,1-1.145,2.238,3.543,3.543,0,0,1-2.037.567A4.1,4.1,0,0,1,203.954,255.794Z" transform="translate(-184.511 -211.777)" fill="#461a55"/>
    <path id="Path_250" data-name="Path 250" d="M217.21,249.991c.041,0,.081-.013.081-.081v-.283c0-2.1,0-2.482-.026-2.913-.029-.459-.135-.674-.581-.769a2.525,2.525,0,0,0-.459-.04c-.054,0-.107-.027-.107-.081,0-.081.067-.108.215-.108.607,0,1.457.041,1.524.041s.917-.041,1.322-.041c.148,0,.215.027.215.108,0,.054-.054.081-.108.081a1.985,1.985,0,0,0-.336.04c-.365.068-.473.3-.5.769-.029.432-.029.809-.029,2.913V252c0,1.295,0,2.361.068,2.928.04.39.121.687.526.741a5.885,5.885,0,0,0,.607.054c.081,0,.108.04.108.081,0,.067-.067.108-.215.108-.742,0-1.591-.041-1.66-.041s-.917.041-1.322.041c-.148,0-.215-.027-.215-.108,0-.041.026-.081.107-.081a2.075,2.075,0,0,0,.4-.054c.271-.054.338-.35.392-.741.067-.567.067-1.633.067-2.928v-1.416a.078.078,0,0,0-.081-.081h-5.718c-.041,0-.081.013-.081.081V252c0,1.295,0,2.361.067,2.928.04.39.121.687.527.741a5.851,5.851,0,0,0,.607.054c.081,0,.107.04.107.081,0,.067-.067.108-.215.108-.742,0-1.593-.041-1.66-.041s-.917.041-1.322.041c-.148,0-.215-.027-.215-.108,0-.041.027-.081.108-.081a2.075,2.075,0,0,0,.4-.054c.269-.054.338-.35.39-.741.068-.567.068-1.633.068-2.928v-2.375c0-2.1,0-2.482-.029-2.913-.026-.459-.134-.674-.58-.769a2.5,2.5,0,0,0-.457-.04c-.054,0-.108-.027-.108-.081,0-.081.067-.108.215-.108.607,0,1.457.041,1.524.041s.917-.041,1.322-.041c.148,0,.215.027.215.108,0,.054-.053.081-.107.081a1.984,1.984,0,0,0-.338.04c-.365.068-.472.3-.5.769-.027.432-.027.809-.027,2.913v.283c0,.068.04.081.081.081Z" transform="translate(-182.239 -211.721)" fill="#461a55"/>
    <path id="Path_251" data-name="Path 251" d="M220.636,251.99a.14.14,0,0,0-.134.107l-.811,2.388a2.856,2.856,0,0,0-.188.9c0,.271.256.392.486.392h.121c.135,0,.175.027.175.081,0,.081-.121.108-.242.108-.325,0-.863-.041-1.011-.041s-.892.041-1.524.041c-.177,0-.256-.027-.256-.108,0-.054.067-.081.188-.081a2.664,2.664,0,0,0,.323-.027c.621-.081.892-.594,1.134-1.268l3.061-8.377c.162-.445.217-.526.3-.526s.135.067.3.486c.2.513,2.319,6.083,3.143,8.133.486,1.2.876,1.416,1.16,1.5a1.75,1.75,0,0,0,.526.081c.081,0,.15.014.15.081s-.121.108-.271.108c-.2,0-1.187,0-2.117-.027-.256-.014-.4-.014-.4-.094,0-.054.04-.081.094-.1.08-.027.162-.148.08-.365l-1.254-3.318a.117.117,0,0,0-.121-.08Zm2.725-.486c.067,0,.067-.041.054-.1l-1.282-3.641c-.067-.2-.135-.2-.2,0l-1.187,3.641c-.027.068,0,.1.04.1Z" transform="translate(-178.779 -211.777)" fill="#461a55"/>
    <path id="Path_252" data-name="Path 252" d="M226.362,249.626c0-2.1,0-2.482-.027-2.913-.027-.459-.135-.674-.581-.769a2.5,2.5,0,0,0-.457-.04c-.054,0-.108-.027-.108-.081,0-.081.067-.108.217-.108.607,0,1.415.041,1.524.041.3,0,1.078-.041,1.7-.041a3.285,3.285,0,0,1,2.509.769,2.457,2.457,0,0,1,.675,1.768,3.1,3.1,0,0,1-3.318,3.047,2.084,2.084,0,0,1-.283-.013c-.068,0-.148-.027-.148-.094,0-.108.08-.121.363-.121a2.224,2.224,0,0,0,2.335-2.308,2.784,2.784,0,0,0-.756-1.969,2.345,2.345,0,0,0-1.848-.675,1.652,1.652,0,0,0-.58.081c-.081.027-.108.123-.108.256V252c0,1.295,0,2.361.068,2.928.04.39.121.687.526.741a5.851,5.851,0,0,0,.607.054c.081,0,.108.04.108.081,0,.067-.068.108-.217.108-.742,0-1.591-.041-1.66-.041-.04,0-.889.041-1.294.041-.148,0-.217-.027-.217-.108,0-.041.027-.081.108-.081a2.075,2.075,0,0,0,.4-.054c.269-.054.338-.35.39-.741.068-.567.068-1.633.068-2.928Z" transform="translate(-175.409 -211.721)" fill="#461a55"/>
    <path id="Path_253" data-name="Path 253" d="M232.386,249.626c0-2.1,0-2.482-.029-2.913-.026-.459-.161-.688-.459-.755a1.725,1.725,0,0,0-.417-.054c-.054,0-.108-.027-.108-.081,0-.081.068-.108.217-.108.444,0,1.294.041,1.362.041s.917-.041,1.322-.041c.148,0,.215.027.215.108,0,.054-.053.081-.107.081a1.968,1.968,0,0,0-.338.04c-.365.068-.472.3-.5.769-.026.432-.026.809-.026,2.913V252c0,1.295,0,2.361.067,2.928.04.39.121.687.527.741.188.027.472.054.551.054.122,0,.162.04.162.081,0,.067-.053.108-.2.108-.742,0-1.606-.041-1.672-.041s-.917.041-1.322.041c-.148,0-.217-.027-.217-.108,0-.041.029-.081.15-.081a1.842,1.842,0,0,0,.35-.04c.271-.054.35-.365.4-.755.068-.567.068-1.633.068-2.928Z" transform="translate(-172.783 -211.721)" fill="#461a55"/>
    <path id="Path_254" data-name="Path 254" d="M236.446,251.99c0-4.871.027-3.117.014-5.734,0-.526.04-.674.148-.674s.338.3.472.432c.2.229,2.212,2.4,4.291,4.627,1.335,1.429,2.805,3.076,3.237,3.52l-.148-6.852c-.014-.878-.108-1.174-.527-1.282a2.781,2.781,0,0,0-.58-.067c-.148,0-.188-.04-.188-.094,0-.081.107-.1.269-.1.607,0,1.255.041,1.4.041s.594-.041,1.145-.041c.15,0,.244.014.244.1,0,.054-.054.081-.148.094s-.188.027-.35.054c-.378.081-.473.284-.473,1.214l-.026,7.878c0,.89-.029.957-.123.957s-.269-.148-.984-.863c-.148-.135-2.09-2.118-3.522-3.656-1.564-1.687-3.089-3.386-3.52-3.871l.177,6.461c.026,1.105.161,1.456.526,1.564a2.905,2.905,0,0,0,.674.081c.068,0,.108.027.108.081,0,.081-.081.108-.242.108-.769,0-1.309-.041-1.43-.041s-.688.041-1.295.041c-.135,0-.217-.014-.217-.108,0-.054.041-.081.108-.081a1.9,1.9,0,0,0,.553-.081c.338-.094.4-.484.4-1.712Z" transform="translate(-171.081 -211.777)" fill="#461a55"/>
    <path id="Path_255" data-name="Path 255" d="M253.6,254.822c0,.607-.013.634-.175.728a7.345,7.345,0,0,1-7.3-.836,5.263,5.263,0,0,1-1.606-3.844,5.115,5.115,0,0,1,2.252-4.439,6.63,6.63,0,0,1,3.589-.849,11.549,11.549,0,0,1,2.064.229,6.86,6.86,0,0,0,1.091.135c.135.013.162.067.162.121a17.1,17.1,0,0,0-.094,1.915c0,.217-.027.284-.122.284-.067,0-.08-.081-.093-.2a2.087,2.087,0,0,0-.284-.89c-.338-.513-1.43-1.093-3.17-1.093a3.856,3.856,0,0,0-4.224,4.317,5.5,5.5,0,0,0,1.432,3.737,4.908,4.908,0,0,0,3.533,1.443,3.674,3.674,0,0,0,1.537-.284.487.487,0,0,0,.271-.472v-2.294c0-1.093-.068-1.241-.607-1.389a2.523,2.523,0,0,0-.459-.04c-.054,0-.108-.027-.108-.081,0-.081.068-.108.217-.108.607,0,1.457.04,1.524.04s.917-.04,1.322-.04c.148,0,.215.027.215.108,0,.054-.054.081-.108.081a2,2,0,0,0-.338.04c-.363.067-.472.3-.5.769-.028.432-.028.836-.028,1.4Z" transform="translate(-167.2 -211.777)" fill="#461a55"/>
    <path id="Path_256" data-name="Path 256" d="M191.551,259.87c0-2.1,0-2.482-.028-2.913-.026-.459-.134-.675-.58-.769a2.5,2.5,0,0,0-.457-.041c-.054,0-.108-.027-.108-.08,0-.081.067-.108.215-.108.607,0,1.416.04,1.524.04.3,0,1.08-.04,1.7-.04a3.285,3.285,0,0,1,2.509.769,2.45,2.45,0,0,1,.675,1.767,3.1,3.1,0,0,1-3.318,3.049,1.885,1.885,0,0,1-.284-.014c-.068,0-.15-.027-.15-.094,0-.108.081-.121.365-.121a2.224,2.224,0,0,0,2.335-2.306,2.787,2.787,0,0,0-.756-1.97,2.344,2.344,0,0,0-1.848-.674,1.65,1.65,0,0,0-.58.081c-.081.027-.108.121-.108.256v5.543c0,1.3,0,2.361.067,2.928.041.392.121.688.526.742a5.891,5.891,0,0,0,.607.054c.083,0,.108.04.108.08,0,.068-.067.108-.215.108-.742,0-1.591-.04-1.66-.04-.04,0-.89.04-1.295.04-.148,0-.215-.027-.215-.108,0-.04.027-.08.108-.08a2.077,2.077,0,0,0,.4-.054c.269-.054.338-.35.39-.742.068-.567.068-1.633.068-2.928Z" transform="translate(-190.19 -207.372)" fill="#461a55"/>
    <path id="Path_257" data-name="Path 257" d="M204.556,260.233a.07.07,0,0,0,.08-.08v-.283c0-2.1,0-2.482-.026-2.913-.028-.459-.135-.675-.581-.769a2.511,2.511,0,0,0-.459-.041c-.054,0-.107-.027-.107-.08,0-.081.067-.108.215-.108.608,0,1.457.04,1.524.04s.917-.04,1.322-.04c.148,0,.217.027.217.108,0,.053-.054.08-.11.08a2.038,2.038,0,0,0-.336.041c-.365.067-.472.3-.5.769-.029.432-.029.809-.029,2.913v2.373c0,1.3,0,2.361.068,2.928.041.392.121.688.526.742a5.892,5.892,0,0,0,.607.054c.081,0,.108.04.108.08,0,.068-.067.108-.215.108-.742,0-1.591-.04-1.66-.04s-.916.04-1.322.04c-.148,0-.215-.027-.215-.108,0-.04.027-.08.107-.08a2.063,2.063,0,0,0,.4-.054c.271-.054.338-.35.392-.742.067-.567.067-1.633.067-2.928v-1.416a.077.077,0,0,0-.08-.081h-5.72a.071.071,0,0,0-.081.081v1.416c0,1.3,0,2.361.067,2.928.041.392.121.688.527.742a5.859,5.859,0,0,0,.607.054c.081,0,.107.04.107.08,0,.068-.067.108-.215.108-.741,0-1.591-.04-1.66-.04s-.917.04-1.322.04c-.147,0-.215-.027-.215-.108,0-.04.027-.08.108-.08a2.077,2.077,0,0,0,.4-.054c.269-.054.338-.35.39-.742.068-.567.068-1.633.068-2.928V259.87c0-2.1,0-2.482-.027-2.913-.027-.459-.135-.675-.581-.769a2.5,2.5,0,0,0-.457-.041c-.054,0-.108-.027-.108-.08,0-.081.067-.108.215-.108.607,0,1.457.04,1.524.04s.919-.04,1.323-.04c.147,0,.215.027.215.108,0,.053-.054.08-.108.08a2.034,2.034,0,0,0-.338.041c-.363.067-.472.3-.5.769-.027.432-.027.809-.027,2.913v.283c0,.067.04.08.081.08Z" transform="translate(-187.612 -207.372)" fill="#461a55"/>
    <path id="Path_258" data-name="Path 258" d="M206.837,259.87c0-2.1,0-2.482-.027-2.913-.027-.459-.162-.688-.459-.757a1.8,1.8,0,0,0-.417-.054c-.054,0-.108-.027-.108-.08,0-.081.068-.108.217-.108.444,0,1.294.04,1.362.04s.917-.04,1.322-.04c.148,0,.215.027.215.108,0,.053-.053.08-.107.08a2,2,0,0,0-.338.041c-.365.067-.472.3-.5.769-.026.432-.026.809-.026,2.913v2.373c0,1.3,0,2.361.067,2.928.04.392.121.688.526.742.189.027.472.054.553.054.121,0,.162.04.162.08,0,.068-.054.108-.2.108-.742,0-1.606-.04-1.673-.04s-.917.04-1.322.04c-.148,0-.217-.027-.217-.108,0-.04.028-.08.15-.08a1.855,1.855,0,0,0,.35-.041c.269-.054.35-.363.4-.755.067-.567.067-1.633.067-2.928Z" transform="translate(-183.631 -207.372)" fill="#461a55"/>
    <path id="Path_259" data-name="Path 259" d="M212.376,262.271c0,1.983.054,2.846.3,3.09.217.215.567.309,1.618.309.715,0,1.309-.013,1.633-.4a1.869,1.869,0,0,0,.35-.809c.014-.108.041-.175.121-.175s.081.054.081.2a8.583,8.583,0,0,1-.2,1.349c-.094.311-.135.365-.849.365-1.16,0-2.306-.081-3.616-.081-.417,0-.822.04-1.322.04-.147,0-.215-.027-.215-.108,0-.04.027-.08.108-.08a2.077,2.077,0,0,0,.4-.054c.269-.054.338-.35.39-.742.068-.567.068-1.633.068-2.928V259.87c0-2.1,0-2.482-.027-2.913-.027-.459-.135-.675-.581-.769a2.5,2.5,0,0,0-.457-.041c-.054,0-.108-.027-.108-.08,0-.081.067-.108.215-.108.607,0,1.457.04,1.524.04s1.053-.04,1.457-.04c.148,0,.215.027.215.108,0,.053-.054.08-.107.08a3.182,3.182,0,0,0-.446.041c-.39.067-.5.3-.526.769-.027.432-.027.809-.027,2.913Z" transform="translate(-181.828 -207.372)" fill="#461a55"/>
    <path id="Path_260" data-name="Path 260" d="M218.571,262.233a.139.139,0,0,0-.134.108l-.811,2.388a2.847,2.847,0,0,0-.188.9.433.433,0,0,0,.484.392h.123c.134,0,.175.027.175.08,0,.081-.121.108-.244.108-.323,0-.862-.04-1.01-.04s-.892.04-1.524.04c-.177,0-.256-.027-.256-.108,0-.053.067-.08.188-.08A3.029,3.029,0,0,0,215.7,266c.621-.081.89-.594,1.134-1.268l3.062-8.377c.161-.446.215-.527.3-.527s.135.068.3.486c.2.513,2.319,6.085,3.143,8.135.486,1.2.876,1.416,1.16,1.5a1.8,1.8,0,0,0,.526.081c.081,0,.15.013.15.08s-.123.108-.271.108c-.2,0-1.187,0-2.117-.027-.256-.013-.4-.013-.4-.094,0-.054.04-.081.094-.094.08-.027.162-.148.08-.365l-1.254-3.318a.118.118,0,0,0-.121-.081Zm2.725-.486c.067,0,.067-.04.054-.094l-1.282-3.643c-.067-.2-.135-.2-.2,0l-1.187,3.643c-.027.067,0,.094.04.094Z" transform="translate(-179.656 -207.428)" fill="#461a55"/>
    <path id="Path_261" data-name="Path 261" d="M223.857,262.233c0-4.869.027-3.116.014-5.733,0-.527.04-.675.148-.675s.336.3.472.432c.2.229,2.212,2.4,4.291,4.627,1.335,1.43,2.805,3.076,3.237,3.52l-.148-6.852c-.014-.876-.108-1.174-.527-1.281a2.807,2.807,0,0,0-.58-.068c-.148,0-.188-.04-.188-.094,0-.08.107-.094.269-.094.607,0,1.255.04,1.4.04s.594-.04,1.145-.04c.15,0,.244.014.244.094,0,.054-.054.081-.148.094s-.188.027-.35.054c-.378.081-.473.284-.473,1.214l-.026,7.878c0,.89-.028.957-.123.957s-.269-.148-.984-.863c-.148-.134-2.09-2.117-3.522-3.656-1.564-1.685-3.087-3.385-3.52-3.871l.177,6.461c.026,1.107.161,1.457.526,1.566a2.99,2.99,0,0,0,.674.081c.068,0,.108.027.108.08,0,.081-.081.108-.242.108-.769,0-1.309-.04-1.43-.04s-.688.04-1.295.04c-.135,0-.217-.013-.217-.108,0-.053.04-.08.108-.08a1.953,1.953,0,0,0,.553-.081c.338-.094.4-.486.4-1.714Z" transform="translate(-176.427 -207.428)" fill="#461a55"/>
    <path id="Path_262" data-name="Path 262" d="M236.5,262.3c0,1.3,0,2.361.067,2.928.041.392.121.688.526.742a5.882,5.882,0,0,0,.608.054c.081,0,.107.04.107.08,0,.068-.067.108-.215.108-.742,0-1.591-.04-1.66-.04s-.917.04-1.322.04c-.148,0-.215-.027-.215-.108,0-.04.027-.08.107-.08a2.063,2.063,0,0,0,.4-.054c.271-.054.338-.35.392-.742.067-.567.067-1.633.067-2.928v-5.706c-.661.013-1.335.013-2,.027-.836.013-1.16.108-1.376.432a2.47,2.47,0,0,0-.229.417c-.04.108-.08.135-.134.135s-.068-.04-.068-.121c0-.135.271-1.295.3-1.4.027-.081.081-.256.134-.256a2.529,2.529,0,0,0,.594.162c.39.041.9.067,1.066.067h5.059a5.321,5.321,0,0,0,.957-.067c.2-.027.323-.067.378-.067s.068.08.068.161c0,.4-.041,1.336-.041,1.484,0,.121-.04.175-.094.175s-.1-.041-.108-.229c0-.054-.013-.094-.013-.148-.041-.4-.365-.715-1.66-.742-.567-.014-1.133-.014-1.7-.027Z" transform="translate(-172.702 -207.428)" fill="#461a55"/>
    <path id="Path_263" data-name="Path 263" d="M247.029,260.233c.041,0,.081-.013.081-.08v-.283c0-2.1,0-2.482-.027-2.913-.027-.459-.135-.675-.58-.769a2.523,2.523,0,0,0-.459-.041c-.054,0-.107-.027-.107-.08,0-.081.067-.108.215-.108.607,0,1.456.04,1.524.04s.917-.04,1.322-.04c.148,0,.215.027.215.108,0,.053-.054.08-.108.08a2.02,2.02,0,0,0-.336.041c-.365.067-.473.3-.5.769-.027.432-.027.809-.027,2.913v2.373c0,1.3,0,2.361.068,2.928.04.392.121.688.526.742a5.858,5.858,0,0,0,.607.054c.081,0,.108.04.108.08,0,.068-.068.108-.217.108-.741,0-1.591-.04-1.658-.04s-.917.04-1.322.04c-.148,0-.215-.027-.215-.108,0-.04.026-.08.107-.08a2.077,2.077,0,0,0,.4-.054c.271-.054.338-.35.392-.742.067-.567.067-1.633.067-2.928v-1.416a.078.078,0,0,0-.081-.081h-5.72a.071.071,0,0,0-.08.081v1.416c0,1.3,0,2.361.067,2.928.04.392.121.688.527.742a5.825,5.825,0,0,0,.607.054c.08,0,.107.04.107.08,0,.068-.067.108-.217.108-.741,0-1.591-.04-1.658-.04s-.917.04-1.322.04c-.148,0-.217-.027-.217-.108,0-.04.029-.08.11-.08a2.092,2.092,0,0,0,.4-.054c.269-.054.336-.35.39-.742.068-.567.068-1.633.068-2.928V259.87c0-2.1,0-2.482-.028-2.913-.026-.459-.134-.675-.58-.769a2.5,2.5,0,0,0-.457-.041c-.054,0-.11-.027-.11-.08,0-.081.068-.108.217-.108.607,0,1.456.04,1.524.04s.917-.04,1.322-.04c.148,0,.215.027.215.108,0,.053-.053.08-.107.08a2,2,0,0,0-.338.041c-.365.067-.472.3-.5.769-.026.432-.026.809-.026,2.913v.283a.07.07,0,0,0,.08.08Z" transform="translate(-169.577 -207.372)" fill="#461a55"/>
    <path id="Path_264" data-name="Path 264" d="M249.361,259.87c0-2.1,0-2.482-.029-2.913-.026-.459-.134-.675-.58-.769a2.5,2.5,0,0,0-.457-.041c-.054,0-.108-.027-.108-.08,0-.081.067-.108.215-.108.607,0,1.457.04,1.524.04.148,0,1.174-.04,1.591-.04a4.162,4.162,0,0,1,2.469.593,2.363,2.363,0,0,1,.93,1.835,4.159,4.159,0,0,1-1.631,3.116c1.105,1.417,2.023,2.617,2.805,3.453a2.793,2.793,0,0,0,1.647.972,3.16,3.16,0,0,0,.526.041c.067,0,.121.04.121.08,0,.081-.081.108-.323.108H257.1a2.741,2.741,0,0,1-1.443-.256,7.014,7.014,0,0,1-1.821-1.983c-.567-.741-1.2-1.645-1.47-2a.217.217,0,0,0-.175-.081l-1.66-.027c-.067,0-.094.041-.094.108v.323c0,1.3,0,2.361.067,2.928.041.392.123.688.527.742a5.824,5.824,0,0,0,.607.054c.08,0,.108.04.108.08,0,.068-.068.108-.217.108-.742,0-1.593-.04-1.66-.04-.013,0-.863.04-1.268.04-.148,0-.215-.027-.215-.108,0-.04.027-.08.108-.08a2.077,2.077,0,0,0,.4-.054c.269-.054.338-.35.39-.742.068-.567.068-1.633.068-2.928Zm1.078,1.174a.175.175,0,0,0,.094.161,3.725,3.725,0,0,0,1.417.217,1.753,1.753,0,0,0,1.012-.256,2.464,2.464,0,0,0,.822-2.077c0-1.687-.89-2.7-2.334-2.7a4,4,0,0,0-.9.081.161.161,0,0,0-.108.161Z" transform="translate(-165.643 -207.372)" fill="#461a55"/>
    <path id="Path_265" data-name="Path 265" d="M255.31,261.1a5.223,5.223,0,0,1,5.315-5.275c3.034,0,5.3,1.916,5.3,5.059a5.3,5.3,0,0,1-5.382,5.518A5.058,5.058,0,0,1,255.31,261.1Zm9.321.161c0-3.237-1.97-4.978-4.1-4.978-2.252,0-3.938,1.484-3.938,4.438,0,3.144,1.888,5.167,4.317,5.167C262.123,265.888,264.631,265.188,264.631,261.261Z" transform="translate(-162.619 -207.428)" fill="#461a55"/>
    <path id="Path_266" data-name="Path 266" d="M265.455,259.87c0-2.1,0-2.482-.029-2.913-.026-.459-.134-.675-.58-.769a2.5,2.5,0,0,0-.457-.041c-.054,0-.108-.027-.108-.08,0-.081.067-.108.215-.108.607,0,1.416.04,1.524.04.3,0,1.08-.04,1.7-.04a3.288,3.288,0,0,1,2.509.769,2.456,2.456,0,0,1,.675,1.767,3.1,3.1,0,0,1-3.318,3.049,1.884,1.884,0,0,1-.284-.014c-.068,0-.15-.027-.15-.094,0-.108.081-.121.365-.121a2.223,2.223,0,0,0,2.333-2.306,2.784,2.784,0,0,0-.755-1.97,2.344,2.344,0,0,0-1.848-.674,1.65,1.65,0,0,0-.58.081c-.081.027-.108.121-.108.256v5.543c0,1.3,0,2.361.067,2.928.041.392.121.688.526.742a5.89,5.89,0,0,0,.607.054c.083,0,.108.04.108.08,0,.068-.067.108-.215.108-.742,0-1.591-.04-1.66-.04-.041,0-.89.04-1.3.04-.148,0-.215-.027-.215-.108,0-.04.027-.08.108-.08a2.092,2.092,0,0,0,.4-.054c.269-.054.338-.35.39-.742.068-.567.068-1.633.068-2.928Z" transform="translate(-158.81 -207.372)" fill="#461a55"/>
    <path id="Path_267" data-name="Path 267" d="M273.959,262.662a2.873,2.873,0,0,0-.309-1.416c-.1-.217-1.9-3.184-2.375-3.885a3.745,3.745,0,0,0-.917-1,1.288,1.288,0,0,0-.58-.217c-.067,0-.135-.027-.135-.094s.054-.094.175-.094c.258,0,1.268.04,1.336.04.094,0,.607-.04,1.133-.04.148,0,.177.04.177.094s-.081.067-.2.121a.272.272,0,0,0-.177.244,1.134,1.134,0,0,0,.177.526c.215.392,2.238,3.872,2.48,4.263.256-.567,1.97-3.52,2.239-3.966a1.312,1.312,0,0,0,.229-.688c0-.188-.054-.336-.215-.378-.123-.04-.2-.067-.2-.134s.08-.081.215-.081c.35,0,.782.04.89.04.081,0,1.053-.04,1.309-.04.094,0,.175.027.175.081s-.068.107-.175.107a1.278,1.278,0,0,0-.621.189,2.592,2.592,0,0,0-.715.688,43.058,43.058,0,0,0-2.576,4.29,3.228,3.228,0,0,0-.2,1.349v1.16c0,.217,0,.782.04,1.349.027.392.148.688.553.742a5.891,5.891,0,0,0,.607.054c.081,0,.108.04.108.08,0,.068-.068.108-.215.108-.742,0-1.593-.04-1.66-.04s-.918.04-1.322.04c-.148,0-.215-.027-.215-.108,0-.04.026-.08.107-.08a2.077,2.077,0,0,0,.4-.054c.271-.054.392-.35.419-.742.04-.567.04-1.133.04-1.349Z" transform="translate(-156.533 -207.372)" fill="#461a55"/>
  </g>
</svg>
